5-Stage Pipeline(With Hazard detection)/rtl/out.vcd
$date
	Mon Nov 24 18:00:18 2025
$end
$version
	Icarus Verilog
$end
$timescale
	1ps
$end
$scope module pipeline_wh_tb $end
$var wire 32 ! result [31:0] $end
$var reg 1 " clk $end
$var reg 1 # reset $end
$scope module dut $end
$var wire 1 " clk $end
$var wire 1 # reset $end
$var wire 32 $ result [31:0] $end
$var wire 32 % write_dataM [31:0] $end
$var wire 32 & rs2_dataE [31:0] $end
$var wire 5 ' rs2_E [4:0] $end
$var wire 32 ( rs1_dataE [31:0] $end
$var wire 5 ) rs1_E [4:0] $end
$var wire 2 * result_srcW [1:0] $end
$var wire 2 + result_srcM [1:0] $end
$var wire 2 , result_srcE [1:0] $end
$var wire 32 - resultW [31:0] $end
$var wire 1 . reg_writeW $end
$var wire 1 / reg_writeM $end
$var wire 1 0 reg_writeE $end
$var wire 32 1 read_dataW [31:0] $end
$var wire 5 2 rd_addrW [4:0] $end
$var wire 5 3 rd_addrM [4:0] $end
$var wire 5 4 rd_addrE [4:0] $end
$var wire 32 5 pc_targetE [31:0] $end
$var wire 1 6 pc_srcE $end
$var wire 32 7 pc_plus4W [31:0] $end
$var wire 32 8 pc_plus4M [31:0] $end
$var wire 32 9 pc_plus4E [31:0] $end
$var wire 32 : pc_plus4D [31:0] $end
$var wire 32 ; pcE [31:0] $end
$var wire 32 < pcD [31:0] $end
$var wire 1 = mem_writeM $end
$var wire 1 > mem_writeE $end
$var wire 32 ? mem_result [31:0] $end
$var wire 32 @ instrD [31:0] $end
$var wire 32 A imm_extendE [31:0] $end
$var wire 3 B funct3M [2:0] $end
$var wire 3 C funct3E [2:0] $end
$var wire 2 D forwardBE [1:0] $end
$var wire 2 E forwardAE [1:0] $end
$var wire 1 F branchE $end
$var wire 1 G alu_srcE $end
$var wire 32 H alu_resultW [31:0] $end
$var wire 32 I alu_resultM [31:0] $end
$var wire 4 J alu_controlE [3:0] $end
$var wire 1 K StallF $end
$var wire 1 L StallD $end
$var wire 1 M FlushE $end
$var wire 1 N FlushD $end
$var parameter 32 O WIDTH $end
$scope module dc $end
$var wire 4 P alu_controlE [3:0] $end
$var wire 1 G alu_srcE $end
$var wire 1 F branchE $end
$var wire 1 " clk $end
$var wire 3 Q funct3E [2:0] $end
$var wire 32 R imm_extendE [31:0] $end
$var wire 1 > mem_writeE $end
$var wire 32 S pcE [31:0] $end
$var wire 32 T pc_plus4E [31:0] $end
$var wire 5 U rd_addrE [4:0] $end
$var wire 1 0 reg_writeE $end
$var wire 1 # reset $end
$var wire 2 V result_srcE [1:0] $end
$var wire 5 W rs1_E [4:0] $end
$var wire 32 X rs1_dataE [31:0] $end
$var wire 5 Y rs2_E [4:0] $end
$var wire 32 Z rs2_dataE [31:0] $end
$var wire 32 [ rs2_dataD [31:0] $end
$var wire 32 \ rs1_dataD [31:0] $end
$var wire 2 ] result_srcD [1:0] $end
$var wire 32 ^ resultW [31:0] $end
$var wire 1 . reg_writeW $end
$var wire 1 _ reg_writeD $end
$var wire 5 ` rd_addrW [4:0] $end
$var wire 5 a rd_addrD [4:0] $end
$var wire 32 b pc_plus4D [31:0] $end
$var wire 32 c pcD [31:0] $end
$var wire 1 M nflush $end
$var wire 1 d mem_writeD $end
$var wire 32 e instrD [31:0] $end
$var wire 2 f imm_srcD [1:0] $end
$var wire 32 g imm_extendD [31:0] $end
$var wire 1 h branchD $end
$var wire 1 i alu_srcD $end
$var wire 4 j alu_controlD [3:0] $end
$var parameter 32 k WIDTH $end
$var reg 4 l alu_controlD_reg [3:0] $end
$var reg 1 G alu_srcD_reg $end
$var reg 1 m branchD_reg $end
$var reg 3 n funct3D_reg [2:0] $end
$var reg 32 o imm_extendD_reg [31:0] $end
$var reg 1 p mem_writeD_reg $end
$var reg 32 q pcD_reg [31:0] $end
$var reg 32 r pc_plus4D_reg [31:0] $end
$var reg 5 s rd_addrD_reg [4:0] $end
$var reg 1 t reg_writeD_reg $end
$var reg 2 u result_srcD_reg [1:0] $end
$var reg 5 v rs1_D_r [4:0] $end
$var reg 32 w rs1_dataD_reg [31:0] $end
$var reg 5 x rs2_D_r [4:0] $end
$var reg 32 y rs2_dataD_reg [31:0] $end
$scope module cp $end
$var wire 3 z funct3 [2:0] $end
$var wire 1 { funct7_5 $end
$var wire 1 | op_5 $end
$var wire 7 } opcode [6:0] $end
$var wire 2 ~ result_src [1:0] $end
$var wire 1 _ reg_write $end
$var wire 1 d mem_write $end
$var wire 2 !" imm_src [1:0] $end
$var wire 1 h branch $end
$var wire 1 i alu_src $end
$var wire 2 "" alu_op [1:0] $end
$var reg 4 #" alu_control [3:0] $end
$var reg 10 $" controls [9:0] $end
$upscope $end
$scope module imm $end
$var wire 2 %" imm_src [1:0] $end
$var wire 25 &" instr [31:7] $end
$var parameter 32 '" WIDTH $end
$var reg 32 (" imm_extend [31:0] $end
$upscope $end
$scope module rf $end
$var wire 1 " clk $end
$var wire 1 # reset $end
$var wire 5 )" rs1_addr [4:0] $end
$var wire 32 *" rs1_data [31:0] $end
$var wire 5 +" rs2_addr [4:0] $end
$var wire 32 ," rs2_data [31:0] $end
$var wire 32 -" wr_data [31:0] $end
$var wire 1 . reg_write $end
$var wire 5 ." rd_addr [4:0] $end
$var parameter 32 /" WIDTH $end
$var parameter 32 0" n_regs $end
$var integer 32 1" i [31:0] $end
$upscope $end
$upscope $end
$scope module ec $end
$var wire 4 2" alu_controlE [3:0] $end
$var wire 32 3" alu_resultM [31:0] $end
$var wire 1 G alu_srcE $end
$var wire 1 F branchE $end
$var wire 1 " clk $end
$var wire 3 4" funct3E [2:0] $end
$var wire 3 5" funct3M [2:0] $end
$var wire 32 6" imm_extendE [31:0] $end
$var wire 1 > mem_writeE $end
$var wire 1 = mem_writeM $end
$var wire 32 7" pcE [31:0] $end
$var wire 32 8" pc_plus4E [31:0] $end
$var wire 32 9" pc_plus4M [31:0] $end
$var wire 5 :" rd_addrE [4:0] $end
$var wire 5 ;" rd_addrM [4:0] $end
$var wire 1 0 reg_writeE $end
$var wire 1 / reg_writeM $end
$var wire 1 # reset $end
$var wire 2 <" result_srcE [1:0] $end
$var wire 2 =" result_srcM [1:0] $end
$var wire 32 >" rs1_dataE [31:0] $end
$var wire 32 ?" rs2_dataE [31:0] $end
$var wire 32 @" write_dataM [31:0] $end
$var wire 1 A" zeroE $end
$var wire 32 B" srcBE_interm [31:0] $end
$var wire 32 C" srcBE [31:0] $end
$var wire 32 D" srcAE [31:0] $end
$var wire 1 E" sltuE $end
$var wire 32 F" resultW [31:0] $end
$var wire 32 G" pc_targetE [31:0] $end
$var wire 1 H" msbE $end
$var wire 32 I" mem_result [31:0] $end
$var wire 2 J" forwardB_E [1:0] $end
$var wire 2 K" forwardA_E [1:0] $end
$var wire 32 L" alu_resultE [31:0] $end
$var parameter 32 M" WIDTH $end
$var reg 32 N" alu_resultE_reg [31:0] $end
$var reg 3 O" funct3E_reg [2:0] $end
$var reg 1 P" mem_writeE_reg $end
$var reg 32 Q" pc_plus4E_reg [31:0] $end
$var reg 1 6 pc_srcE $end
$var reg 5 R" rd_addrE_reg [4:0] $end
$var reg 1 / reg_writeE_reg $end
$var reg 2 S" result_srcE_reg [1:0] $end
$var reg 32 T" write_dataE_reg [31:0] $end
$scope module alu_src_mux $end
$var wire 32 U" b [31:0] $end
$var wire 1 G sel $end
$var wire 32 V" out [31:0] $end
$var wire 32 W" a [31:0] $end
$var parameter 32 X" WIDTH $end
$upscope $end
$scope module main_alu $end
$var wire 4 Y" alu_control [3:0] $end
$var wire 32 Z" b [31:0] $end
$var wire 1 A" zero $end
$var wire 1 E" sltu $end
$var wire 1 H" msb $end
$var wire 32 [" a [31:0] $end
$var parameter 32 \" WIDTH $end
$var reg 32 ]" alu_result [31:0] $end
$upscope $end
$scope module pct_adder $end
$var wire 32 ^" a [31:0] $end
$var wire 32 _" b [31:0] $end
$var wire 32 `" sum [31:0] $end
$var parameter 32 a" WIDTH $end
$upscope $end
$scope module srca_mux $end
$var wire 32 b" a [31:0] $end
$var wire 2 c" sel [1:0] $end
$var wire 32 d" out [31:0] $end
$var wire 32 e" c [31:0] $end
$var wire 32 f" b [31:0] $end
$var parameter 32 g" WIDTH $end
$upscope $end
$scope module srcb_mux $end
$var wire 32 h" a [31:0] $end
$var wire 2 i" sel [1:0] $end
$var wire 32 j" out [31:0] $end
$var wire 32 k" c [31:0] $end
$var wire 32 l" b [31:0] $end
$var parameter 32 m" WIDTH $end
$upscope $end
$upscope $end
$scope module fc $end
$var wire 1 " clk $end
$var wire 32 n" pcD [31:0] $end
$var wire 32 o" pc_plus4D [31:0] $end
$var wire 1 6 pc_srcE $end
$var wire 32 p" pc_targetE [31:0] $end
$var wire 1 # reset $end
$var wire 32 q" pc_plus4F [31:0] $end
$var wire 32 r" pc_nextF [31:0] $end
$var wire 32 s" pcF [31:0] $end
$var wire 1 N nflush $end
$var wire 1 K nff_enable $end
$var wire 1 L nenable $end
$var wire 32 t" instrF [31:0] $end
$var wire 32 u" instrD [31:0] $end
$var parameter 32 v" WIDTH $end
$var reg 32 w" instrF_reg [31:0] $end
$var reg 32 x" pcF_reg [31:0] $end
$var reg 32 y" pc_plus4F_reg [31:0] $end
$scope module imF $end
$var wire 32 z" instr [31:0] $end
$var wire 32 {" instr_addr [31:0] $end
$var parameter 32 |" ADDR_WIDTH $end
$var parameter 32 }" DATA_WIDTH $end
$var parameter 32 ~" MEM_SIZE $end
$upscope $end
$scope module pc_ffF $end
$var wire 1 " clk $end
$var wire 1 # reset $end
$var wire 1 K enable $end
$var wire 32 !# d [31:0] $end
$var parameter 32 "# WIDTH $end
$var reg 32 ## q [31:0] $end
$upscope $end
$scope module pc_muxF $end
$var wire 32 $# b [31:0] $end
$var wire 1 6 sel $end
$var wire 32 %# out [31:0] $end
$var wire 32 &# a [31:0] $end
$var parameter 32 '# WIDTH $end
$upscope $end
$scope module pc_plus4adderF $end
$var wire 32 (# a [31:0] $end
$var wire 32 )# b [31:0] $end
$var wire 32 *# sum [31:0] $end
$var parameter 32 +# WIDTH $end
$upscope $end
$upscope $end
$scope module forwarding $end
$var wire 32 ,# instrD [31:0] $end
$var wire 1 -# lwStall $end
$var wire 1 6 pc_srcE $end
$var wire 5 .# rd_addrE [4:0] $end
$var wire 5 /# rd_addrM [4:0] $end
$var wire 1 / reg_writeM $end
$var wire 2 0# result_srcE [1:0] $end
$var wire 5 1# rs1_E [4:0] $end
$var wire 5 2# rs1_addrD [4:0] $end
$var wire 5 3# rs2_E [4:0] $end
$var wire 5 4# rs2_addrD [4:0] $end
$var wire 1 # rst $end
$var wire 1 . reg_writeW $end
$var wire 5 5# rd_writeW [4:0] $end
$var wire 2 6# forwardBE [1:0] $end
$var wire 2 7# forwardAE [1:0] $end
$var wire 1 K StallF $end
$var wire 1 L StallD $end
$var wire 1 M FlushE $end
$var wire 1 N FlushD $end
$upscope $end
$scope module mc $end
$var wire 32 8# alu_resultM [31:0] $end
$var wire 32 9# alu_resultW [31:0] $end
$var wire 1 " clk $end
$var wire 3 :# funct3M [2:0] $end
$var wire 1 = mem_writeM $end
$var wire 32 ;# pc_plus4M [31:0] $end
$var wire 32 <# pc_plus4W [31:0] $end
$var wire 5 =# rd_addrM [4:0] $end
$var wire 5 ># rd_addrW [4:0] $end
$var wire 32 ?# read_dataW [31:0] $end
$var wire 1 / reg_writeM $end
$var wire 1 . reg_writeW $end
$var wire 1 # reset $end
$var wire 2 @# result_srcM [1:0] $end
$var wire 2 A# result_srcW [1:0] $end
$var wire 32 B# write_dataM [31:0] $end
$var wire 32 C# read_dataM [31:0] $end
$var wire 32 D# mem_result [31:0] $end
$var parameter 32 E# WIDTH $end
$var reg 32 F# alu_resultM_reg [31:0] $end
$var reg 32 G# pc_plus4M_reg [31:0] $end
$var reg 5 H# rd_addrM_reg [4:0] $end
$var reg 32 I# read_dataM_reg [31:0] $end
$var reg 1 . reg_writeM_reg $end
$var reg 2 J# result_srcM_reg [1:0] $end
$scope module dm $end
$var wire 1 " clk $end
$var wire 3 K# funct3 [2:0] $end
$var wire 1 = mem_write $end
$var wire 1 # reset $end
$var wire 32 L# wr_addr [31:0] $end
$var wire 32 M# wr_data [31:0] $end
$var wire 32 N# word_addr [31:0] $end
$var parameter 32 O# MEM_SIZE $end
$var parameter 32 P# WIDTH $end
$var parameter 32 Q# word_addr_bits $end
$var reg 32 R# read_data [31:0] $end
$var integer 32 S# i [31:0] $end
$upscope $end
$upscope $end
$scope module wc $end
$var wire 32 T# alu_resultW [31:0] $end
$var wire 32 U# pc_plus4W [31:0] $end
$var wire 32 V# read_dataW [31:0] $end
$var wire 2 W# result_srcW [1:0] $end
$var wire 32 X# resultW [31:0] $end
$var parameter 32 Y# WIDTH $end
$scope module result_mux $end
$var wire 32 Z# a [31:0] $end
$var wire 32 [# b [31:0] $end
$var wire 32 \# c [31:0] $end
$var wire 2 ]# sel [1:0] $end
$var wire 32 ^# out [31:0] $end
$var parameter 32 _# WIDTH $end
$upscope $end
$upscope $end
$upscope $end
$upscope $end
$enddefinitions $end
$comment Show the parameter values. $end
$dumpall
b100000 _#
b100000 Y#
b10 Q#
b100000 P#
b100000 O#
b100000 E#
b100000 +#
b100000 '#
b100000 "#
b1000000000 ~"
b100000 }"
b100000 |"
b100000 v"
b100000 m"
b100000 g"
b100000 a"
b100000 \"
b100000 X"
b100000 M"
b100000 0"
b100000 /"
b100000 '"
b100000 k
b100000 O
$end
#0
$dumpvars
b0 ^#
b0 ]#
b0 \#
b0 [#
b0 Z#
b0 X#
b0 W#
b0 V#
b0 U#
b0 T#
b100000 S#
b0 R#
b0 N#
b0 M#
b0 L#
b0 K#
b0 J#
b0 I#
b0 H#
b0 G#
b0 F#
b0 D#
b0 C#
b0 B#
b0 A#
b0 @#
b0 ?#
b0 >#
b0 =#
b0 <#
b0 ;#
b0 :#
b0 9#
b0 8#
b0 7#
b0 6#
b0 5#
bx 4#
bx 3#
bx 2#
bx 1#
bx 0#
b0 /#
bx .#
x-#
bx ,#
b100 *#
b100 )#
b0 (#
b100 &#
b100 %#
bx $#
b0 ##
b100 !#
b0 {"
b101000000000000010010011 z"
bx y"
bx x"
bx w"
bx u"
b101000000000000010010011 t"
b0 s"
b100 r"
b100 q"
bx p"
bx o"
bx n"
b0 l"
b0 k"
bx j"
b0 i"
bx h"
b0 f"
b0 e"
bx d"
b0 c"
bx b"
bx `"
bx _"
bx ^"
bx ]"
bx ["
bx Z"
bx Y"
bx W"
bx V"
bx U"
b0 T"
b0 S"
b0 R"
b0 Q"
0P"
b0 O"
b0 N"
bx L"
b0 K"
b0 J"
b0 I"
xH"
bx G"
b0 F"
xE"
bx D"
bx C"
bx B"
xA"
b0 @"
bx ?"
bx >"
b0 ="
bx <"
b0 ;"
bx :"
b0 9"
bx 8"
bx 7"
bx 6"
b0 5"
bx 4"
b0 3"
bx 2"
b100000 1"
b0 ."
b0 -"
bx ,"
bx +"
bx *"
bx )"
bx ("
bx &"
bx %"
bx $"
bx #"
bx ""
bx !"
bx ~
bx }
x|
x{
bx z
bx y
bx x
bx w
bx v
bx u
xt
bx s
bx r
bx q
xp
bx o
bx n
xm
bx l
bx j
xi
xh
bx g
bx f
bx e
xd
bx c
bx b
bx a
b0 `
x_
b0 ^
bx ]
bx \
bx [
bx Z
bx Y
bx X
bx W
bx V
bx U
bx T
bx S
bx R
bx Q
bx P
1N
xM
xL
xK
bx J
b0 I
b0 H
xG
xF
b0 E
b0 D
bx C
b0 B
bx A
bx @
b0 ?
x>
0=
bx <
bx ;
bx :
bx 9
b0 8
b0 7
06
bx 5
bx 4
b0 3
b0 2
b0 1
x0
0/
0.
b0 -
bx ,
b0 +
b0 *
bx )
bx (
bx '
bx &
b0 %
b0 $
0#
0"
b0 !
$end
#5000
b1010 g
b1010 ("
b0 j
b0 #"
0h
b0 ]
b0 ~
0d
1i
b0 f
b0 !"
b0 %"
1_
b10 ""
b100110 $"
b1 a
b10100000000000001 &"
b0 [
b0 ,"
b1010 +"
b0 \
b0 *"
b0 )"
0|
0{
b0 z
b10011 }
b1010 4#
b0 2#
b100 :
b100 b
b100 o"
b100 y"
b0 <
b0 c
b0 n"
b0 x"
b101000000000000010010011 @
b101000000000000010010011 e
b101000000000000010010011 u"
b101000000000000010010011 w"
b101000000000000010010011 ,#
b100000 S#
b100000 1"
1"
#10000
0"
#15000
0A"
0H"
b1010 L"
b1010 ]"
b0 B"
b0 W"
b0 j"
1E"
b0 D"
b0 ["
b0 d"
1M
b1010 C"
b1010 V"
b1010 Z"
1K
1L
0-#
b1010 '
b1010 Y
b1010 x
b1010 3#
b0 )
b0 W
b0 v
b0 1#
b0 C
b0 Q
b0 4"
b0 n
b100 9
b100 T
b100 8"
b100 r
b1010 5
b1010 G"
b1010 `"
b1010 p"
b1010 $#
b1010 A
b1010 R
b1010 o
b1010 6"
b1010 U"
b1010 _"
b1 4
b1 U
b1 s
b1 :"
b1 .#
b0 ;
b0 S
b0 q
b0 7"
b0 ^"
b0 &
b0 Z
b0 y
b0 ?"
b0 h"
b0 (
b0 X
b0 w
b0 >"
b0 b"
1G
b0 J
b0 P
b0 2"
b0 Y"
b0 l
0F
0m
0>
0p
b0 ,
b0 V
b0 u
b0 <"
b0 0#
10
1t
b100000 1"
b100000 S#
1"
#20000
0"
1#
#25000
b1010 ?
b1010 I"
b1010 e"
b1010 k"
b1010 D#
b10 N#
b1000 r"
b1000 !#
b1000 %#
b10100000000000100010011 t"
b10100000000000100010011 z"
b100 8
b100 9"
b100 ;#
b100 Q"
b1 3
b1 ;"
b1 R"
b1 /#
b1 =#
b1010 I
b1010 3"
b1010 N"
b1010 8#
b1010 L#
1/
b1000 q"
b1000 &#
b1000 *#
b100 s"
b100 {"
b100 ##
b100 (#
1"
#30000
0"
#35000
b101 g
b101 ("
b1010 !
b1010 $
b1010 -
b1010 ^
b1010 -"
b1010 F"
b1010 f"
b1010 l"
b1010 X#
b1010 ^#
b1100 r"
b1100 !#
b1100 %#
b100010000000110110011 t"
b100010000000110110011 z"
b10 a
b1010000000000010 &"
b101 +"
b101 4#
b1100 q"
b1100 &#
b1100 *#
b1000 s"
b1000 {"
b1000 ##
b1000 (#
b1000 :
b1000 b
b1000 o"
b1000 y"
b100 <
b100 c
b100 n"
b100 x"
b10100000000000100010011 @
b10100000000000100010011 e
b10100000000000100010011 u"
b10100000000000100010011 w"
b10100000000000100010011 ,#
b1 2
b1 `
b1 ."
b1 5#
b1 >#
b1 H#
b100 7
b100 <#
b100 G#
b100 U#
b100 \#
b1010 H
b1010 9#
b1010 F#
b1010 T#
b1010 Z#
1.
1"
#40000
0"
#45000
0i
bx f
bx !"
bx %"
b101 L"
b101 ]"
bx g
bx ("
b0xx110 $"
b101 C"
b101 V"
b101 Z"
b11 a
b10001000000011 &"
b1010 [
b1010 ,"
b1 +"
b10 )"
1|
b110011 }
b1 4#
b10 2#
b10000 r"
b10000 !#
b10000 %#
b11011001000000011 t"
b11011001000000011 z"
b101 '
b101 Y
b101 x
b101 3#
b1000 9
b1000 T
b1000 8"
b1000 r
b101 A
b101 R
b101 o
b101 6"
b101 U"
b101 _"
b10 4
b10 U
b10 s
b10 :"
b10 .#
b1001 5
b1001 G"
b1001 `"
b1001 p"
b1001 $#
b100 ;
b100 S
b100 q
b100 7"
b100 ^"
b1100 :
b1100 b
b1100 o"
b1100 y"
b1000 <
b1000 c
b1000 n"
b1000 x"
b100010000000110110011 @
b100010000000110110011 e
b100010000000110110011 u"
b100010000000110110011 w"
b100010000000110110011 ,#
b10000 q"
b10000 &#
b10000 *#
b1100 s"
b1100 {"
b1100 ##
b1100 (#
1"
#50000
0"
#55000
b101 D"
b101 ["
b101 d"
b0 g
b0 ("
b1 D
b1 J"
b1 i"
b1 6#
0A"
b1 ]
b1 ~
1i
b0 f
b0 !"
b0 %"
b0 ""
b10 E
b10 K"
b10 c"
b10 7#
b0 j
b0 #"
b10100100 $"
b1010 B"
b1010 W"
b1010 j"
b1111 L"
b1111 ]"
b10100 r"
b10100 !#
b10100 %#
b1100100000001010110011 t"
b1100100000001010110011 z"
b100 a
b1101100100 &"
b0 [
b0 ,"
b0 +"
b11 )"
0|
b11 z
b11 }
b0 4#
b11 2#
1E"
b1010 C"
b1010 V"
b1010 Z"
b101 ?
b101 I"
b101 e"
b101 k"
b101 D#
b1 N#
b10100 q"
b10100 &#
b10100 *#
b10000 s"
b10000 {"
b10000 ##
b10000 (#
b10000 :
b10000 b
b10000 o"
b10000 y"
b1100 <
b1100 c
b1100 n"
b1100 x"
b11011001000000011 @
b11011001000000011 e
b11011001000000011 u"
b11011001000000011 w"
b11011001000000011 ,#
b1 '
b1 Y
b1 x
b1 3#
b10 )
b10 W
b10 v
b10 1#
b1100 9
b1100 T
b1100 8"
b1100 r
bx A
bx R
bx o
bx 6"
bx U"
bx _"
b11 4
b11 U
b11 s
b11 :"
b11 .#
bx 5
bx G"
bx `"
bx p"
bx $#
b1000 ;
b1000 S
b1000 q
b1000 7"
b1000 ^"
b1010 &
b1010 Z
b1010 y
b1010 ?"
b1010 h"
0G
b1000 8
b1000 9"
b1000 ;#
b1000 Q"
b10 3
b10 ;"
b10 R"
b10 /#
b10 =#
b101 I
b101 3"
b101 N"
b101 8#
b101 L#
1"
#60000
0"
#65000
b0 B"
b0 W"
b0 j"
b0 D
b0 J"
b0 i"
b0 6#
b0 ]
b0 ~
0i
bx f
bx !"
bx %"
b10 ""
b101 !
b101 $
b101 -
b101 ^
b101 -"
b101 F"
b101 f"
b101 l"
b101 X#
b101 ^#
b1111 D"
b1111 ["
b1111 d"
b1111 L"
b1111 ]"
0M
bx g
bx ("
b0xx110 $"
b1111 ?
b1111 I"
b1111 e"
b1111 k"
b1111 D#
b11 N#
0E"
b0 C"
b0 V"
b0 Z"
0K
0L
1-#
b101 a
b110010000000101 &"
b11 +"
b100 )"
1|
b0 z
b110011 }
b11 4#
b100 2#
b11000 r"
b11000 !#
b11000 %#
bx t"
bx z"
b10 2
b10 `
b10 ."
b10 5#
b10 >#
b10 H#
b1000 7
b1000 <#
b1000 G#
b1000 U#
b1000 \#
b101 H
b101 9#
b101 F#
b101 T#
b101 Z#
b1100 8
b1100 9"
b1100 ;#
b1100 Q"
b11 3
b11 ;"
b11 R"
b11 /#
b11 =#
b1010 %
b1010 @"
b1010 B#
b1010 M#
b1010 T"
b1111 I
b1111 3"
b1111 N"
b1111 8#
b1111 L#
b0 '
b0 Y
b0 x
b0 3#
b11 )
b11 W
b11 v
b11 1#
b11 C
b11 Q
b11 4"
b11 n
b10000 9
b10000 T
b10000 8"
b10000 r
b1100 5
b1100 G"
b1100 `"
b1100 p"
b1100 $#
b0 A
b0 R
b0 o
b0 6"
b0 U"
b0 _"
b100 4
b100 U
b100 s
b100 :"
b100 .#
b1100 ;
b1100 S
b1100 q
b1100 7"
b1100 ^"
b0 &
b0 Z
b0 y
b0 ?"
b0 h"
1G
b1 ,
b1 V
b1 u
b1 <"
b1 0#
b10100 :
b10100 b
b10100 o"
b10100 y"
b10000 <
b10000 c
b10000 n"
b10000 x"
b1100100000001010110011 @
b1100100000001010110011 e
b1100100000001010110011 u"
b1100100000001010110011 w"
b1100100000001010110011 ,#
b11000 q"
b11000 &#
b11000 *#
b10100 s"
b10100 {"
b10100 ##
b10100 (#
1"
#70000
0"
#75000
1A"
b0 E
b0 K"
b0 c"
b0 7#
b0 L"
b0 ]"
1M
b0 D"
b0 ["
b0 d"
b1111 !
b1111 $
b1111 -
b1111 ^
b1111 -"
b1111 F"
b1111 f"
b1111 l"
b1111 X#
b1111 ^#
1K
1L
0-#
b0 ?
b0 I"
b0 e"
b0 k"
b0 D#
b0 )
b0 W
b0 v
b0 1#
b0 C
b0 Q
b0 4"
b0 n
b0 9
b0 T
b0 8"
b0 r
b0 4
b0 U
b0 s
b0 :"
b0 .#
b0 5
b0 G"
b0 `"
b0 p"
b0 $#
b0 ;
b0 S
b0 q
b0 7"
b0 ^"
0G
b0 ,
b0 V
b0 u
b0 <"
b0 0#
00
0t
b11 B
b11 5"
b11 :#
b11 K#
b11 O"
b10000 8
b10000 9"
b10000 ;#
b10000 Q"
b100 3
b100 ;"
b100 R"
b100 /#
b100 =#
b0 %
b0 @"
b0 B#
b0 M#
b0 T"
b1 +
b1 ="
b1 S"
b1 @#
b11 2
b11 `
b11 ."
b11 5#
b11 >#
b11 H#
b1100 7
b1100 <#
b1100 G#
b1100 U#
b1100 \#
b1111 H
b1111 9#
b1111 F#
b1111 T#
b1111 Z#
1"
#80000
0"
#85000
0A"
b1 E
b1 K"
b1 c"
b1 7#
b1111 L"
b1111 ]"
b0 !
b0 $
b0 -
b0 ^
b0 -"
b0 F"
b0 f"
b0 l"
b0 X#
b0 ^#
1E"
b1111 C"
b1111 V"
b1111 Z"
xh
bx ]
bx ~
xd
xi
x_
bx ""
b1111 B"
b1111 W"
b1111 j"
bx $"
b0 N#
bx a
bx &"
bx +"
bx \
bx *"
bx )"
x|
x{
bx z
bx }
bx 4#
bx 2#
b11100 r"
b11100 !#
b11100 %#
b100 2
b100 `
b100 ."
b100 5#
b100 >#
b100 H#
b10000 7
b10000 <#
b10000 G#
b10000 U#
b10000 \#
b1 *
b1 A#
b1 J#
b1 W#
b1 ]#
b0 B
b0 5"
b0 :#
b0 K#
b0 O"
b0 8
b0 9"
b0 ;#
b0 Q"
b0 3
b0 ;"
b0 R"
b0 /#
b0 =#
b0 I
b0 3"
b0 N"
b0 8#
b0 L#
b0 +
b0 ="
b0 S"
b0 @#
0/
b11 '
b11 Y
b11 x
b11 3#
b100 )
b100 W
b100 v
b100 1#
b10100 9
b10100 T
b10100 8"
b10100 r
bx A
bx R
bx o
bx 6"
bx U"
bx _"
b101 4
b101 U
b101 s
b101 :"
b101 .#
bx 5
bx G"
bx `"
bx p"
bx $#
b10000 ;
b10000 S
b10000 q
b10000 7"
b10000 ^"
b1111 &
b1111 Z
b1111 y
b1111 ?"
b1111 h"
10
1t
b11000 :
b11000 b
b11000 o"
b11000 y"
b10100 <
b10100 c
b10100 n"
b10100 x"
bx @
bx e
bx u"
bx w"
bx ,#
b11100 q"
b11100 &#
b11100 *#
b11000 s"
b11000 {"
b11000 ##
b11000 (#
bx [
bx ,"
1"
#90000
0"
#95000
bx D"
bx ["
bx d"
xA"
bx0 D
bx0 J"
bx0 i"
bx0 6#
bx0 E
bx0 K"
bx0 c"
bx0 7#
xH"
bx B"
bx W"
bx j"
bx L"
bx ]"
xM
b100000 r"
b100000 !#
b100000 %#
xE"
bx C"
bx V"
bx Z"
xK
xL
x-#
b1111 ?
b1111 I"
b1111 e"
b1111 k"
b1111 D#
b11 N#
b100000 q"
b100000 &#
b100000 *#
b11100 s"
b11100 {"
b11100 ##
b11100 (#
b11100 :
b11100 b
b11100 o"
b11100 y"
b11000 <
b11000 c
b11000 n"
b11000 x"
bx '
bx Y
bx x
bx 3#
bx )
bx W
bx v
bx 1#
bx C
bx Q
bx 4"
bx n
b11000 9
b11000 T
b11000 8"
b11000 r
bx 4
bx U
bx s
bx :"
bx .#
b10100 ;
b10100 S
b10100 q
b10100 7"
b10100 ^"
bx &
bx Z
bx y
bx ?"
bx h"
bx (
bx X
bx w
bx >"
bx b"
xG
xF
xm
x>
xp
bx ,
bx V
bx u
bx <"
bx 0#
x0
xt
b10100 8
b10100 9"
b10100 ;#
b10100 Q"
b101 3
b101 ;"
b101 R"
b101 /#
b101 =#
b1111 %
b1111 @"
b1111 B#
b1111 M#
b1111 T"
b1111 I
b1111 3"
b1111 N"
b1111 8#
b1111 L#
1/
b0 2
b0 `
b0 ."
b0 5#
b0 >#
b0 H#
b0 7
b0 <#
b0 G#
b0 U#
b0 \#
b0 H
b0 9#
b0 F#
b0 T#
b0 Z#
b0 *
b0 A#
b0 J#
b0 W#
b0 ]#
0.
1"
#100000
0"
#105000
bx D
bx J"
bx i"
bx 6#
bx E
bx K"
bx c"
bx 7#
b1111 !
b1111 $
b1111 -
b1111 ^
b1111 -"
b1111 F"
b1111 f"
b1111 l"
b1111 X#
b1111 ^#
b0xxxxxxxxxxxxxxxxxxxxxxxxxxxxxx N#
bx ?
bx I"
bx e"
bx k"
bx D#
b100100 r"
b100100 !#
b100100 %#
b101 2
b101 `
b101 ."
b101 5#
b101 >#
b101 H#
b10100 7
b10100 <#
b10100 G#
b10100 U#
b10100 \#
b1111 H
b1111 9#
b1111 F#
b1111 T#
b1111 Z#
1.
bx B
bx 5"
bx :#
bx K#
bx O"
b11000 8
b11000 9"
b11000 ;#
b11000 Q"
bx 3
bx ;"
bx R"
bx /#
bx =#
bx %
bx @"
bx B#
bx M#
bx T"
bx I
bx 3"
bx N"
bx 8#
bx L#
x=
xP"
bx +
bx ="
bx S"
bx @#
x/
b11100 9
b11100 T
b11100 8"
b11100 r
b11000 ;
b11000 S
b11000 q
b11000 7"
b11000 ^"
b100000 :
b100000 b
b100000 o"
b100000 y"
b11100 <
b11100 c
b11100 n"
b11100 x"
b100100 q"
b100100 &#
b100100 *#
b100000 s"
b100000 {"
b100000 ##
b100000 (#
1"
#110000
0"
