Single_Cycle/rtl/out.vcd
$date
	Thu Nov 13 22:02:14 2025
$end
$version
	Icarus Verilog
$end
$timescale
	1ps
$end
$scope module pipeline_wh_tb $end
$var wire 32 ! result [31:0] $end
$var reg 1 " clk $end
$var reg 1 # reset $end
$scope module dut $end
$var wire 1 " clk $end
$var wire 1 # reset $end
$var wire 32 $ result [31:0] $end
$var wire 32 % read_data [31:0] $end
$var wire 32 & pc [31:0] $end
$var wire 1 ' mem_write $end
$var wire 32 ( mem_wr_data [31:0] $end
$var wire 32 ) mem_wr_addr [31:0] $end
$var wire 1 * led $end
$var wire 32 + instr [31:0] $end
$var wire 3 , funct3 [2:0] $end
$var parameter 32 - WIDTH $end
$scope module cpu $end
$var wire 1 " clk $end
$var wire 1 # reset $end
$var wire 1 . zero $end
$var wire 1 / sltu $end
$var wire 2 0 result_src [1:0] $end
$var wire 32 1 result [31:0] $end
$var wire 1 2 reg_write $end
$var wire 32 3 read_data [31:0] $end
$var wire 1 4 pc_src $end
$var wire 32 5 pc [31:0] $end
$var wire 1 6 msb $end
$var wire 1 ' mem_write $end
$var wire 32 7 mem_wr_data [31:0] $end
$var wire 32 8 mem_wr_addr [31:0] $end
$var wire 1 9 jalr $end
$var wire 32 : instr [31:0] $end
$var wire 2 ; imm_src [1:0] $end
$var wire 3 < funct3 [2:0] $end
$var wire 1 = alu_src $end
$var wire 5 > alu_control [4:0] $end
$var parameter 32 ? WIDTH $end
$scope module cp $end
$var wire 3 @ funct3 [2:0] $end
$var wire 1 A funct7_1 $end
$var wire 1 B funct7_5 $end
$var wire 1 C op_5 $end
$var wire 7 D opcode [6:0] $end
$var wire 1 . zero $end
$var wire 1 / sltu $end
$var wire 2 E result_src [1:0] $end
$var wire 1 2 reg_write $end
$var wire 1 6 msb $end
$var wire 1 ' mem_write $end
$var wire 1 9 jalr $end
$var wire 2 F imm_src [1:0] $end
$var wire 1 G branch $end
$var wire 1 = alu_src $end
$var wire 2 H alu_op [1:0] $end
$var reg 5 I alu_control [4:0] $end
$var reg 11 J controls [10:0] $end
$var reg 1 4 pc_src $end
$upscope $end
$scope module dp $end
$var wire 5 K alu_control [4:0] $end
$var wire 1 = alu_src $end
$var wire 1 " clk $end
$var wire 2 L imm_src [1:0] $end
$var wire 1 9 jalr $end
$var wire 32 M mem_wr_addr [31:0] $end
$var wire 32 N mem_wr_data [31:0] $end
$var wire 1 ' mem_write $end
$var wire 1 4 pc_src $end
$var wire 1 2 reg_write $end
$var wire 1 # reset $end
$var wire 2 O result_src [1:0] $end
$var wire 32 P srcA [31:0] $end
$var wire 1 . zero $end
$var wire 32 Q srcB [31:0] $end
$var wire 1 / sltu $end
$var wire 32 R rs2_data [31:0] $end
$var wire 32 S rs1_data [31:0] $end
$var wire 32 T result [31:0] $end
$var wire 32 U read_data [31:0] $end
$var wire 32 V pc_target [31:0] $end
$var wire 32 W pc_plus4 [31:0] $end
$var wire 32 X pc_next_jalr [31:0] $end
$var wire 32 Y pc_next [31:0] $end
$var wire 32 Z pc [31:0] $end
$var wire 1 6 msb $end
$var wire 32 [ lui [31:0] $end
$var wire 32 \ lauipc [31:0] $end
$var wire 32 ] instr [31:0] $end
$var wire 32 ^ imm_extend [31:0] $end
$var wire 32 _ auipc [31:0] $end
$var wire 32 ` alu_result [31:0] $end
$var parameter 32 a WIDTH $end
$scope module alusrc_mux $end
$var wire 1 = sel $end
$var wire 32 b out [31:0] $end
$var wire 32 c b [31:0] $end
$var wire 32 d a [31:0] $end
$var parameter 32 e WIDTH $end
$upscope $end
$scope module auipc_adder $end
$var wire 32 f b [31:0] $end
$var wire 32 g sum [31:0] $end
$var wire 32 h a [31:0] $end
$var parameter 32 i WIDTH $end
$upscope $end
$scope module imm_extendBlock $end
$var wire 2 j imm_src [1:0] $end
$var wire 25 k instr [31:7] $end
$var parameter 32 l WIDTH $end
$var reg 32 m imm_extend [31:0] $end
$upscope $end
$scope module jalr_pc_mux $end
$var wire 1 9 sel $end
$var wire 32 n out [31:0] $end
$var wire 32 o b [31:0] $end
$var wire 32 p a [31:0] $end
$var parameter 32 q WIDTH $end
$upscope $end
$scope module lauipc_mux $end
$var wire 32 r a [31:0] $end
$var wire 32 s b [31:0] $end
$var wire 1 t sel $end
$var wire 32 u out [31:0] $end
$var parameter 32 v WIDTH $end
$upscope $end
$scope module main_alu $end
$var wire 32 w a [31:0] $end
$var wire 5 x alu_control [4:0] $end
$var wire 32 y b [31:0] $end
$var wire 1 . zero $end
$var wire 1 / sltu $end
$var wire 32 z remu [31:0] $end
$var wire 32 { rem [31:0] $end
$var wire 64 | mulu [63:0] $end
$var wire 64 } mulsu [63:0] $end
$var wire 64 ~ mul [63:0] $end
$var wire 1 6 msb $end
$var wire 32 !" divu [31:0] $end
$var wire 32 "" div [31:0] $end
$var parameter 32 #" WIDTH $end
$var reg 32 $" alu_result [31:0] $end
$scope module mext_alu $end
$var wire 32 %" a [31:0] $end
$var wire 32 &" b [31:0] $end
$var wire 32 '" remu [31:0] $end
$var wire 32 (" rem [31:0] $end
$var wire 64 )" mulu [63:0] $end
$var wire 64 *" mulsu [63:0] $end
$var wire 64 +" mul [63:0] $end
$var wire 32 ," divu [31:0] $end
$var wire 32 -" div [31:0] $end
$var parameter 32 ." WIDTH $end
$upscope $end
$upscope $end
$scope module main_pc_mux $end
$var wire 1 4 sel $end
$var wire 32 /" out [31:0] $end
$var wire 32 0" b [31:0] $end
$var wire 32 1" a [31:0] $end
$var parameter 32 2" WIDTH $end
$upscope $end
$scope module main_reg_file $end
$var wire 1 " clk $end
$var wire 5 3" rd_addr [4:0] $end
$var wire 1 2 reg_write $end
$var wire 1 # reset $end
$var wire 5 4" rs1_addr [4:0] $end
$var wire 32 5" rs1_data [31:0] $end
$var wire 5 6" rs2_addr [4:0] $end
$var wire 32 7" rs2_data [31:0] $end
$var wire 32 8" wr_data [31:0] $end
$var parameter 32 9" WIDTH $end
$var parameter 32 :" n_regs $end
$var integer 32 ;" i [31:0] $end
$upscope $end
$scope module pc_ff $end
$var wire 1 " clk $end
$var wire 32 <" d [31:0] $end
$var wire 1 # reset $end
$var parameter 32 =" WIDTH $end
$var reg 32 >" q [31:0] $end
$upscope $end
$scope module pc_plus4adder $end
$var wire 32 ?" a [31:0] $end
$var wire 32 @" b [31:0] $end
$var wire 32 A" sum [31:0] $end
$var parameter 32 B" WIDTH $end
$upscope $end
$scope module pc_target_adder $end
$var wire 32 C" a [31:0] $end
$var wire 32 D" b [31:0] $end
$var wire 32 E" sum [31:0] $end
$var parameter 32 F" WIDTH $end
$upscope $end
$scope module result_mux $end
$var wire 32 G" a [31:0] $end
$var wire 32 H" c [31:0] $end
$var wire 32 I" d [31:0] $end
$var wire 2 J" sel [1:0] $end
$var wire 32 K" out [31:0] $end
$var wire 32 L" b [31:0] $end
$var parameter 32 M" WIDTH $end
$upscope $end
$upscope $end
$upscope $end
$scope module dm $end
$var wire 1 " clk $end
$var wire 3 N" funct3 [2:0] $end
$var wire 1 ' mem_write $end
$var wire 1 # reset $end
$var wire 32 O" wr_addr [31:0] $end
$var wire 32 P" wr_data [31:0] $end
$var wire 32 Q" word_addr [31:0] $end
$var parameter 32 R" MEM_SIZE $end
$var parameter 32 S" WIDTH $end
$var parameter 32 T" word_addr_bits $end
$var reg 32 U" read_data [31:0] $end
$var integer 32 V" i [31:0] $end
$upscope $end
$scope module im $end
$var wire 32 W" instr [31:0] $end
$var wire 32 X" instr_addr [31:0] $end
$var parameter 32 Y" ADDR_WIDTH $end
$var parameter 32 Z" DATA_WIDTH $end
$var parameter 32 [" MEM_SIZE $end
$upscope $end
$upscope $end
$upscope $end
$enddefinitions $end
$comment Show the parameter values. $end
$dumpall
b1000000000 ["
b100000 Z"
b100000 Y"
b10 T"
b100000 S"
b100000 R"
b100000 M"
b100000 F"
b100000 B"
b100000 ="
b100000 :"
b100000 9"
b100000 2"
b100000 ."
b100000 #"
b100000 v
b100000 q
b100000 l
b100000 i
b100000 e
b100000 a
b100000 ?
b100000 -
$end
#0
$dumpvars
b0 X"
b1000000000000010010011 W"
b100000 V"
b0 U"
b0 Q"
b0 P"
b10 O"
b0 N"
b0 L"
b10 K"
b0 J"
b1000000000000000000000 I"
b100 H"
b10 G"
b10 E"
b10 D"
b0 C"
b100 A"
b100 @"
b0 ?"
b0 >"
b100 <"
b100000 ;"
b10 8"
b0 7"
b10 6"
b0 5"
b0 4"
b1 3"
b100 1"
b10 0"
b100 /"
b0 -"
b0 ,"
b0 +"
b0 *"
b0 )"
b0 ("
b0 '"
b10 &"
b0 %"
b10 $"
b0 ""
b0 !"
b0 ~
b0 }
b0 |
b0 {
b0 z
b10 y
b0 x
b0 w
b1000000000000000000000 u
0t
b1000000000000000000000 s
b1000000000000000000000 r
b100 p
b10 o
b100 n
b10 m
b100000000000001 k
b0 j
b0 h
b1000000000000000000000 g
b1000000000000000000000 f
b0 d
b10 c
b10 b
b10 `
b1000000000000000000000 _
b10 ^
b1000000000000010010011 ]
b1000000000000000000000 \
b1000000000000000000000 [
b0 Z
b100 Y
b100 X
b100 W
b10 V
b0 U
b10 T
b0 S
b0 R
b10 Q
b0 P
b0 O
b0 N
b10 M
b0 L
b0 K
b1001100 J
b0 I
b10 H
0G
b0 F
b0 E
b10011 D
0C
0B
0A
b0 @
b0 >
1=
b0 <
b0 ;
b1000000000000010010011 :
09
b10 8
b0 7
06
b0 5
04
b0 3
12
b10 1
b0 0
1/
0.
b0 ,
b1000000000000010010011 +
0*
b10 )
b0 (
0'
b0 &
b0 %
b10 $
0#
0"
b10 !
$end
#5000
b100000 V"
b100000 ;"
1"
#10000
0"
#15000
b100000 ;"
b100000 V"
1"
#20000
0"
1#
#25000
b11 !
b11 $
b11 1
b11 T
b11 8"
b11 K"
b11 )
b11 8
b11 M
b11 O"
b11 `
b11 o
b11 $"
b11 G"
b11 Q
b11 b
b11 y
b11 &"
b11 ^
b11 c
b11 m
b11 D"
b1000 X
b1000 n
b1000 <"
b1100000000000000000000 [
b1100000000000000000000 f
b1100000000000000000000 s
b110000000000010 k
b10 3"
b11 6"
b1000 Y
b1000 p
b1000 /"
b1100000000000100010011 +
b1100000000000100010011 :
b1100000000000100010011 ]
b1100000000000100010011 W"
b1100000000000000000100 \
b1100000000000000000100 u
b1100000000000000000100 I"
b1000 W
b1000 1"
b1000 A"
b1000 H"
b111 V
b111 0"
b111 E"
b1100000000000000000100 _
b1100000000000000000100 g
b1100000000000000000100 r
b100 &
b100 5
b100 Z
b100 h
b100 >"
b100 ?"
b100 C"
b100 X"
1"
#30000
0"
#35000
b110 !
b110 $
b110 1
b110 T
b110 8"
b110 K"
b1 Q"
0=
bx ;
bx F
bx L
bx j
bx ^
bx c
bx m
bx D"
b10 {
b10 ("
b10 z
b10 '"
b110 )
b110 8
b110 M
b110 O"
b110 `
b110 o
b110 $"
b110 G"
b10000 >
b10000 I
b10000 K
b10000 x
b0xx1100 J
b1100 X
b1100 n
b1100 <"
1t
b10001000001000000000000000 [
b10001000001000000000000000 f
b10001000001000000000000000 s
b1000100000100000011 k
b11 3"
b11 (
b11 7
b11 N
b11 P"
b11 R
b11 d
b11 7"
b10 6"
b110 ~
b110 +"
b110 }
b110 *"
b110 |
b110 )"
b10 P
b10 w
b10 %"
b10 S
b10 5"
b1 4"
1C
1A
b110011 D
b1100 Y
b1100 p
b1100 /"
b10001000001000000110110011 +
b10001000001000000110110011 :
b10001000001000000110110011 ]
b10001000001000000110110011 W"
b10001000001000000000000000 \
b10001000001000000000000000 u
b10001000001000000000000000 I"
b1100 W
b1100 1"
b1100 A"
b1100 H"
bx V
bx 0"
bx E"
b10001000001000000000001000 _
b10001000001000000000001000 g
b10001000001000000000001000 r
b1000 &
b1000 5
b1000 Z
b1000 h
b1000 >"
b1000 ?"
b1000 C"
b1000 X"
1"
#40000
0"
#45000
1*
x.
bx !
bx $
bx 1
bx T
bx 8"
bx K"
x6
bx Q"
xG
bx 0
bx E
bx O
bx J"
x'
x=
x2
bx H
bx \
bx u
bx I"
bx Q
bx b
bx y
bx &"
bx ""
bx -"
bx !"
bx ,"
bx {
bx ("
bx z
bx '"
bx )
bx 8
bx M
bx O"
bx `
bx o
bx $"
bx G"
bx0 J
b10000 X
b10000 n
b10000 <"
xt
bx000000000000 [
bx000000000000 f
bx000000000000 s
bx k
bx 3"
bx (
bx 7
bx N
bx P"
bx R
bx d
bx 7"
bx 6"
x/
bx ~
bx +"
bx }
bx *"
bx |
bx )"
bx P
bx w
bx %"
bx S
bx 5"
bx 4"
bx ,
bx <
bx N"
xC
xA
xB
bx @
bx D
b10000 Y
b10000 p
b10000 /"
bx +
bx :
bx ]
bx W"
b10000 W
b10000 1"
b10000 A"
b10000 H"
bx _
bx g
bx r
b1100 &
b1100 5
b1100 Z
b1100 h
b1100 >"
b1100 ?"
b1100 C"
b1100 X"
1"
#50000
0"
#55000
b10100 X
b10100 n
b10100 <"
b10100 Y
b10100 p
b10100 /"
b10100 W
b10100 1"
b10100 A"
b10100 H"
b10000 &
b10000 5
b10000 Z
b10000 h
b10000 >"
b10000 ?"
b10000 C"
b10000 X"
1"
#60000
0"
#65000
b11000 X
b11000 n
b11000 <"
b11000 Y
b11000 p
b11000 /"
b11000 W
b11000 1"
b11000 A"
b11000 H"
b10100 &
b10100 5
b10100 Z
b10100 h
b10100 >"
b10100 ?"
b10100 C"
b10100 X"
1"
#70000
0"
#75000
b11100 X
b11100 n
b11100 <"
b11100 Y
b11100 p
b11100 /"
b11100 W
b11100 1"
b11100 A"
b11100 H"
b11000 &
b11000 5
b11000 Z
b11000 h
b11000 >"
b11000 ?"
b11000 C"
b11000 X"
1"
#80000
0"
#85000
b100000 X
b100000 n
b100000 <"
b100000 Y
b100000 p
b100000 /"
b100000 W
b100000 1"
b100000 A"
b100000 H"
b11100 &
b11100 5
b11100 Z
b11100 h
b11100 >"
b11100 ?"
b11100 C"
b11100 X"
1"
#90000
0"
#95000
b100100 X
b100100 n
b100100 <"
b100100 Y
b100100 p
b100100 /"
b100100 W
b100100 1"
b100100 A"
b100100 H"
b100000 &
b100000 5
b100000 Z
b100000 h
b100000 >"
b100000 ?"
b100000 C"
b100000 X"
1"
#100000
0"
#105000
b101000 X
b101000 n
b101000 <"
b101000 Y
b101000 p
b101000 /"
b101000 W
b101000 1"
b101000 A"
b101000 H"
b100100 &
b100100 5
b100100 Z
b100100 h
b100100 >"
b100100 ?"
b100100 C"
b100100 X"
1"
#110000
0"
#115000
b101100 X
b101100 n
b101100 <"
b101100 Y
b101100 p
b101100 /"
b101100 W
b101100 1"
b101100 A"
b101100 H"
b101000 &
b101000 5
b101000 Z
b101000 h
b101000 >"
b101000 ?"
b101000 C"
b101000 X"
1"
#120000
0"
#125000
b110000 X
b110000 n
b110000 <"
b110000 Y
b110000 p
b110000 /"
b110000 W
b110000 1"
b110000 A"
b110000 H"
b101100 &
b101100 5
b101100 Z
b101100 h
b101100 >"
b101100 ?"
b101100 C"
b101100 X"
1"
#130000
0"
#135000
b110100 X
b110100 n
b110100 <"
b110100 Y
b110100 p
b110100 /"
b110100 W
b110100 1"
b110100 A"
b110100 H"
b110000 &
b110000 5
b110000 Z
b110000 h
b110000 >"
b110000 ?"
b110000 C"
b110000 X"
1"
#140000
0"
#145000
b111000 X
b111000 n
b111000 <"
b111000 Y
b111000 p
b111000 /"
b111000 W
b111000 1"
b111000 A"
b111000 H"
b110100 &
b110100 5
b110100 Z
b110100 h
b110100 >"
b110100 ?"
b110100 C"
b110100 X"
1"
#150000
0"
#155000
b111100 X
b111100 n
b111100 <"
b111100 Y
b111100 p
b111100 /"
b111100 W
b111100 1"
b111100 A"
b111100 H"
b111000 &
b111000 5
b111000 Z
b111000 h
b111000 >"
b111000 ?"
b111000 C"
b111000 X"
1"
#160000
0"
#165000
b1000000 X
b1000000 n
b1000000 <"
b1000000 Y
b1000000 p
b1000000 /"
b1000000 W
b1000000 1"
b1000000 A"
b1000000 H"
b111100 &
b111100 5
b111100 Z
b111100 h
b111100 >"
b111100 ?"
b111100 C"
b111100 X"
1"
#170000
0"
#175000
b1000100 X
b1000100 n
b1000100 <"
b1000100 Y
b1000100 p
b1000100 /"
b1000100 W
b1000100 1"
b1000100 A"
b1000100 H"
b1000000 &
b1000000 5
b1000000 Z
b1000000 h
b1000000 >"
b1000000 ?"
b1000000 C"
b1000000 X"
1"
#180000
0"
#185000
b1001000 X
b1001000 n
b1001000 <"
b1001000 Y
b1001000 p
b1001000 /"
b1001000 W
b1001000 1"
b1001000 A"
b1001000 H"
b1000100 &
b1000100 5
b1000100 Z
b1000100 h
b1000100 >"
b1000100 ?"
b1000100 C"
b1000100 X"
1"
#190000
0"
#195000
b1001100 X
b1001100 n
b1001100 <"
b1001100 Y
b1001100 p
b1001100 /"
b1001100 W
b1001100 1"
b1001100 A"
b1001100 H"
b1001000 &
b1001000 5
b1001000 Z
b1001000 h
b1001000 >"
b1001000 ?"
b1001000 C"
b1001000 X"
1"
#200000
0"
#205000
b1010000 X
b1010000 n
b1010000 <"
b1010000 Y
b1010000 p
b1010000 /"
b1010000 W
b1010000 1"
b1010000 A"
b1010000 H"
b1001100 &
b1001100 5
b1001100 Z
b1001100 h
b1001100 >"
b1001100 ?"
b1001100 C"
b1001100 X"
1"
#210000
0"
#215000
b1010100 X
b1010100 n
b1010100 <"
b1010100 Y
b1010100 p
b1010100 /"
b1010100 W
b1010100 1"
b1010100 A"
b1010100 H"
b1010000 &
b1010000 5
b1010000 Z
b1010000 h
b1010000 >"
b1010000 ?"
b1010000 C"
b1010000 X"
1"
#220000
0"
#225000
b1011000 X
b1011000 n
b1011000 <"
b1011000 Y
b1011000 p
b1011000 /"
b1011000 W
b1011000 1"
b1011000 A"
b1011000 H"
b1010100 &
b1010100 5
b1010100 Z
b1010100 h
b1010100 >"
b1010100 ?"
b1010100 C"
b1010100 X"
1"
#230000
0"
#235000
b1011100 X
b1011100 n
b1011100 <"
b1011100 Y
b1011100 p
b1011100 /"
b1011100 W
b1011100 1"
b1011100 A"
b1011100 H"
b1011000 &
b1011000 5
b1011000 Z
b1011000 h
b1011000 >"
b1011000 ?"
b1011000 C"
b1011000 X"
1"
#240000
0"
#245000
b1100000 X
b1100000 n
b1100000 <"
b1100000 Y
b1100000 p
b1100000 /"
b1100000 W
b1100000 1"
b1100000 A"
b1100000 H"
b1011100 &
b1011100 5
b1011100 Z
b1011100 h
b1011100 >"
b1011100 ?"
b1011100 C"
b1011100 X"
1"
#250000
0"
#255000
b1100100 X
b1100100 n
b1100100 <"
b1100100 Y
b1100100 p
b1100100 /"
b1100100 W
b1100100 1"
b1100100 A"
b1100100 H"
b1100000 &
b1100000 5
b1100000 Z
b1100000 h
b1100000 >"
b1100000 ?"
b1100000 C"
b1100000 X"
1"
#260000
0"
#265000
b1101000 X
b1101000 n
b1101000 <"
b1101000 Y
b1101000 p
b1101000 /"
b1101000 W
b1101000 1"
b1101000 A"
b1101000 H"
b1100100 &
b1100100 5
b1100100 Z
b1100100 h
b1100100 >"
b1100100 ?"
b1100100 C"
b1100100 X"
1"
#270000
0"
#275000
b1101100 X
b1101100 n
b1101100 <"
b1101100 Y
b1101100 p
b1101100 /"
b1101100 W
b1101100 1"
b1101100 A"
b1101100 H"
b1101000 &
b1101000 5
b1101000 Z
b1101000 h
b1101000 >"
b1101000 ?"
b1101000 C"
b1101000 X"
1"
#280000
0"
#285000
b1110000 X
b1110000 n
b1110000 <"
b1110000 Y
b1110000 p
b1110000 /"
b1110000 W
b1110000 1"
b1110000 A"
b1110000 H"
b1101100 &
b1101100 5
b1101100 Z
b1101100 h
b1101100 >"
b1101100 ?"
b1101100 C"
b1101100 X"
1"
#290000
0"
#295000
b1110100 X
b1110100 n
b1110100 <"
b1110100 Y
b1110100 p
b1110100 /"
b1110100 W
b1110100 1"
b1110100 A"
b1110100 H"
b1110000 &
b1110000 5
b1110000 Z
b1110000 h
b1110000 >"
b1110000 ?"
b1110000 C"
b1110000 X"
1"
#300000
0"
#305000
b1111000 X
b1111000 n
b1111000 <"
b1111000 Y
b1111000 p
b1111000 /"
b1111000 W
b1111000 1"
b1111000 A"
b1111000 H"
b1110100 &
b1110100 5
b1110100 Z
b1110100 h
b1110100 >"
b1110100 ?"
b1110100 C"
b1110100 X"
1"
#310000
0"
#315000
b1111100 X
b1111100 n
b1111100 <"
b1111100 Y
b1111100 p
b1111100 /"
b1111100 W
b1111100 1"
b1111100 A"
b1111100 H"
b1111000 &
b1111000 5
b1111000 Z
b1111000 h
b1111000 >"
b1111000 ?"
b1111000 C"
b1111000 X"
1"
#320000
0"
#325000
b10000000 X
b10000000 n
b10000000 <"
b10000000 Y
b10000000 p
b10000000 /"
b10000000 W
b10000000 1"
b10000000 A"
b10000000 H"
b1111100 &
b1111100 5
b1111100 Z
b1111100 h
b1111100 >"
b1111100 ?"
b1111100 C"
b1111100 X"
1"
#330000
0"
#335000
b10000100 X
b10000100 n
b10000100 <"
b10000100 Y
b10000100 p
b10000100 /"
b10000100 W
b10000100 1"
b10000100 A"
b10000100 H"
b10000000 &
b10000000 5
b10000000 Z
b10000000 h
b10000000 >"
b10000000 ?"
b10000000 C"
b10000000 X"
1"
#340000
0"
#345000
b10001000 X
b10001000 n
b10001000 <"
b10001000 Y
b10001000 p
b10001000 /"
b10001000 W
b10001000 1"
b10001000 A"
b10001000 H"
b10000100 &
b10000100 5
b10000100 Z
b10000100 h
b10000100 >"
b10000100 ?"
b10000100 C"
b10000100 X"
1"
#350000
0"
#355000
b10001100 X
b10001100 n
b10001100 <"
b10001100 Y
b10001100 p
b10001100 /"
b10001100 W
b10001100 1"
b10001100 A"
b10001100 H"
b10001000 &
b10001000 5
b10001000 Z
b10001000 h
b10001000 >"
b10001000 ?"
b10001000 C"
b10001000 X"
1"
#360000
0"
#365000
b10010000 X
b10010000 n
b10010000 <"
b10010000 Y
b10010000 p
b10010000 /"
b10010000 W
b10010000 1"
b10010000 A"
b10010000 H"
b10001100 &
b10001100 5
b10001100 Z
b10001100 h
b10001100 >"
b10001100 ?"
b10001100 C"
b10001100 X"
1"
#370000
0"
#375000
b10010100 X
b10010100 n
b10010100 <"
b10010100 Y
b10010100 p
b10010100 /"
b10010100 W
b10010100 1"
b10010100 A"
b10010100 H"
b10010000 &
b10010000 5
b10010000 Z
b10010000 h
b10010000 >"
b10010000 ?"
b10010000 C"
b10010000 X"
1"
#380000
0"
#385000
b10011000 X
b10011000 n
b10011000 <"
b10011000 Y
b10011000 p
b10011000 /"
b10011000 W
b10011000 1"
b10011000 A"
b10011000 H"
b10010100 &
b10010100 5
b10010100 Z
b10010100 h
b10010100 >"
b10010100 ?"
b10010100 C"
b10010100 X"
1"
#390000
0"
#395000
b10011100 X
b10011100 n
b10011100 <"
b10011100 Y
b10011100 p
b10011100 /"
b10011100 W
b10011100 1"
b10011100 A"
b10011100 H"
b10011000 &
b10011000 5
b10011000 Z
b10011000 h
b10011000 >"
b10011000 ?"
b10011000 C"
b10011000 X"
1"
#400000
0"
#405000
b10100000 X
b10100000 n
b10100000 <"
b10100000 Y
b10100000 p
b10100000 /"
b10100000 W
b10100000 1"
b10100000 A"
b10100000 H"
b10011100 &
b10011100 5
b10011100 Z
b10011100 h
b10011100 >"
b10011100 ?"
b10011100 C"
b10011100 X"
1"
#410000
0"
#415000
b10100100 X
b10100100 n
b10100100 <"
b10100100 Y
b10100100 p
b10100100 /"
b10100100 W
b10100100 1"
b10100100 A"
b10100100 H"
b10100000 &
b10100000 5
b10100000 Z
b10100000 h
b10100000 >"
b10100000 ?"
b10100000 C"
b10100000 X"
1"
#420000
0"
#425000
b10101000 X
b10101000 n
b10101000 <"
b10101000 Y
b10101000 p
b10101000 /"
b10101000 W
b10101000 1"
b10101000 A"
b10101000 H"
b10100100 &
b10100100 5
b10100100 Z
b10100100 h
b10100100 >"
b10100100 ?"
b10100100 C"
b10100100 X"
1"
#430000
0"
#435000
b10101100 X
b10101100 n
b10101100 <"
b10101100 Y
b10101100 p
b10101100 /"
b10101100 W
b10101100 1"
b10101100 A"
b10101100 H"
b10101000 &
b10101000 5
b10101000 Z
b10101000 h
b10101000 >"
b10101000 ?"
b10101000 C"
b10101000 X"
1"
#440000
0"
#445000
b10110000 X
b10110000 n
b10110000 <"
b10110000 Y
b10110000 p
b10110000 /"
b10110000 W
b10110000 1"
b10110000 A"
b10110000 H"
b10101100 &
b10101100 5
b10101100 Z
b10101100 h
b10101100 >"
b10101100 ?"
b10101100 C"
b10101100 X"
1"
#450000
0"
#455000
b10110100 X
b10110100 n
b10110100 <"
b10110100 Y
b10110100 p
b10110100 /"
b10110100 W
b10110100 1"
b10110100 A"
b10110100 H"
b10110000 &
b10110000 5
b10110000 Z
b10110000 h
b10110000 >"
b10110000 ?"
b10110000 C"
b10110000 X"
1"
#460000
0"
#465000
b10111000 X
b10111000 n
b10111000 <"
b10111000 Y
b10111000 p
b10111000 /"
b10111000 W
b10111000 1"
b10111000 A"
b10111000 H"
b10110100 &
b10110100 5
b10110100 Z
b10110100 h
b10110100 >"
b10110100 ?"
b10110100 C"
b10110100 X"
1"
#470000
0"
#475000
b10111100 X
b10111100 n
b10111100 <"
b10111100 Y
b10111100 p
b10111100 /"
b10111100 W
b10111100 1"
b10111100 A"
b10111100 H"
b10111000 &
b10111000 5
b10111000 Z
b10111000 h
b10111000 >"
b10111000 ?"
b10111000 C"
b10111000 X"
1"
#480000
0"
#485000
b11000000 X
b11000000 n
b11000000 <"
b11000000 Y
b11000000 p
b11000000 /"
b11000000 W
b11000000 1"
b11000000 A"
b11000000 H"
b10111100 &
b10111100 5
b10111100 Z
b10111100 h
b10111100 >"
b10111100 ?"
b10111100 C"
b10111100 X"
1"
#490000
0"
#495000
b11000100 X
b11000100 n
b11000100 <"
b11000100 Y
b11000100 p
b11000100 /"
b11000100 W
b11000100 1"
b11000100 A"
b11000100 H"
b11000000 &
b11000000 5
b11000000 Z
b11000000 h
b11000000 >"
b11000000 ?"
b11000000 C"
b11000000 X"
1"
#500000
0"
#505000
b11001000 X
b11001000 n
b11001000 <"
b11001000 Y
b11001000 p
b11001000 /"
b11001000 W
b11001000 1"
b11001000 A"
b11001000 H"
b11000100 &
b11000100 5
b11000100 Z
b11000100 h
b11000100 >"
b11000100 ?"
b11000100 C"
b11000100 X"
1"
#510000
0"
#515000
b11001100 X
b11001100 n
b11001100 <"
b11001100 Y
b11001100 p
b11001100 /"
b11001100 W
b11001100 1"
b11001100 A"
b11001100 H"
b11001000 &
b11001000 5
b11001000 Z
b11001000 h
b11001000 >"
b11001000 ?"
b11001000 C"
b11001000 X"
1"
#520000
0"
#525000
b11010000 X
b11010000 n
b11010000 <"
b11010000 Y
b11010000 p
b11010000 /"
b11010000 W
b11010000 1"
b11010000 A"
b11010000 H"
b11001100 &
b11001100 5
b11001100 Z
b11001100 h
b11001100 >"
b11001100 ?"
b11001100 C"
b11001100 X"
1"
#530000
0"
#535000
b11010100 X
b11010100 n
b11010100 <"
b11010100 Y
b11010100 p
b11010100 /"
b11010100 W
b11010100 1"
b11010100 A"
b11010100 H"
b11010000 &
b11010000 5
b11010000 Z
b11010000 h
b11010000 >"
b11010000 ?"
b11010000 C"
b11010000 X"
1"
#540000
0"
#545000
b11011000 X
b11011000 n
b11011000 <"
b11011000 Y
b11011000 p
b11011000 /"
b11011000 W
b11011000 1"
b11011000 A"
b11011000 H"
b11010100 &
b11010100 5
b11010100 Z
b11010100 h
b11010100 >"
b11010100 ?"
b11010100 C"
b11010100 X"
1"
#550000
0"
#555000
b11011100 X
b11011100 n
b11011100 <"
b11011100 Y
b11011100 p
b11011100 /"
b11011100 W
b11011100 1"
b11011100 A"
b11011100 H"
b11011000 &
b11011000 5
b11011000 Z
b11011000 h
b11011000 >"
b11011000 ?"
b11011000 C"
b11011000 X"
1"
#560000
0"
#565000
b11100000 X
b11100000 n
b11100000 <"
b11100000 Y
b11100000 p
b11100000 /"
b11100000 W
b11100000 1"
b11100000 A"
b11100000 H"
b11011100 &
b11011100 5
b11011100 Z
b11011100 h
b11011100 >"
b11011100 ?"
b11011100 C"
b11011100 X"
1"
#570000
0"
#575000
b11100100 X
b11100100 n
b11100100 <"
b11100100 Y
b11100100 p
b11100100 /"
b11100100 W
b11100100 1"
b11100100 A"
b11100100 H"
b11100000 &
b11100000 5
b11100000 Z
b11100000 h
b11100000 >"
b11100000 ?"
b11100000 C"
b11100000 X"
1"
#580000
0"
#585000
b11101000 X
b11101000 n
b11101000 <"
b11101000 Y
b11101000 p
b11101000 /"
b11101000 W
b11101000 1"
b11101000 A"
b11101000 H"
b11100100 &
b11100100 5
b11100100 Z
b11100100 h
b11100100 >"
b11100100 ?"
b11100100 C"
b11100100 X"
1"
#590000
0"
#595000
b11101100 X
b11101100 n
b11101100 <"
b11101100 Y
b11101100 p
b11101100 /"
b11101100 W
b11101100 1"
b11101100 A"
b11101100 H"
b11101000 &
b11101000 5
b11101000 Z
b11101000 h
b11101000 >"
b11101000 ?"
b11101000 C"
b11101000 X"
1"
#600000
0"
#605000
b11110000 X
b11110000 n
b11110000 <"
b11110000 Y
b11110000 p
b11110000 /"
b11110000 W
b11110000 1"
b11110000 A"
b11110000 H"
b11101100 &
b11101100 5
b11101100 Z
b11101100 h
b11101100 >"
b11101100 ?"
b11101100 C"
b11101100 X"
1"
#610000
0"
#615000
b11110100 X
b11110100 n
b11110100 <"
b11110100 Y
b11110100 p
b11110100 /"
b11110100 W
b11110100 1"
b11110100 A"
b11110100 H"
b11110000 &
b11110000 5
b11110000 Z
b11110000 h
b11110000 >"
b11110000 ?"
b11110000 C"
b11110000 X"
1"
#620000
0"
