5-Stage Pipeline(Without Hazard detection)/rtl/out.vcd
$date
	Thu Nov 13 03:25:31 2025
$end
$version
	Icarus Verilog
$end
$timescale
	1ps
$end
$scope module pipeline_wh_tb $end
$var wire 32 ! result [31:0] $end
$var reg 1 " clk $end
$var reg 1 # reset $end
$scope module dut $end
$var wire 1 " clk $end
$var wire 1 # reset $end
$var wire 32 $ result [31:0] $end
$var wire 32 % write_dataM [31:0] $end
$var wire 32 & rs2_dataE [31:0] $end
$var wire 32 ' rs1_dataE [31:0] $end
$var wire 2 ( result_srcW [1:0] $end
$var wire 2 ) result_srcM [1:0] $end
$var wire 2 * result_srcE [1:0] $end
$var wire 32 + resultW [31:0] $end
$var wire 1 , reg_writeW $end
$var wire 1 - reg_writeM $end
$var wire 1 . reg_writeE $end
$var wire 32 / read_dataW [31:0] $end
$var wire 5 0 rd_addrW [4:0] $end
$var wire 5 1 rd_addrM [4:0] $end
$var wire 5 2 rd_addrE [4:0] $end
$var wire 32 3 pc_targetE [31:0] $end
$var wire 1 4 pc_srcE $end
$var wire 32 5 pc_plus4W [31:0] $end
$var wire 32 6 pc_plus4M [31:0] $end
$var wire 32 7 pc_plus4E [31:0] $end
$var wire 32 8 pc_plus4D [31:0] $end
$var wire 32 9 pcE [31:0] $end
$var wire 32 : pcD [31:0] $end
$var wire 1 ; mem_writeM $end
$var wire 1 < mem_writeE $end
$var wire 32 = instrD [31:0] $end
$var wire 32 > imm_extendE [31:0] $end
$var wire 3 ? funct3M [2:0] $end
$var wire 3 @ funct3E [2:0] $end
$var wire 1 A branchE $end
$var wire 1 B alu_srcE $end
$var wire 32 C alu_resultW [31:0] $end
$var wire 32 D alu_resultM [31:0] $end
$var wire 4 E alu_controlE [3:0] $end
$var parameter 32 F WIDTH $end
$scope module dc $end
$var wire 4 G alu_controlE [3:0] $end
$var wire 1 B alu_srcE $end
$var wire 1 A branchE $end
$var wire 1 " clk $end
$var wire 3 H funct3E [2:0] $end
$var wire 32 I imm_extendE [31:0] $end
$var wire 1 < mem_writeE $end
$var wire 32 J pcE [31:0] $end
$var wire 32 K pc_plus4E [31:0] $end
$var wire 1 L rd_addrD $end
$var wire 5 M rd_addrE [4:0] $end
$var wire 1 . reg_writeE $end
$var wire 1 # reset $end
$var wire 2 N result_srcE [1:0] $end
$var wire 32 O rs1_dataE [31:0] $end
$var wire 32 P rs2_dataE [31:0] $end
$var wire 32 Q rs2_dataD [31:0] $end
$var wire 32 R rs1_dataD [31:0] $end
$var wire 2 S result_srcD [1:0] $end
$var wire 32 T resultW [31:0] $end
$var wire 1 , reg_writeW $end
$var wire 1 U reg_writeD $end
$var wire 5 V rd_addrW [4:0] $end
$var wire 32 W pc_plus4D [31:0] $end
$var wire 32 X pcD [31:0] $end
$var wire 1 Y mem_writeD $end
$var wire 32 Z instrD [31:0] $end
$var wire 2 [ imm_srcD [1:0] $end
$var wire 32 \ imm_extendD [31:0] $end
$var wire 1 ] branchD $end
$var wire 1 ^ alu_srcD $end
$var wire 4 _ alu_controlD [3:0] $end
$var parameter 32 ` WIDTH $end
$var reg 4 a alu_controlD_reg [3:0] $end
$var reg 1 B alu_srcD_reg $end
$var reg 1 b branchD_reg $end
$var reg 3 c funct3D_reg [2:0] $end
$var reg 32 d imm_extendD_reg [31:0] $end
$var reg 1 e mem_writeD_reg $end
$var reg 32 f pcD_reg [31:0] $end
$var reg 32 g pc_plus4D_reg [31:0] $end
$var reg 5 h rd_addrD_reg [4:0] $end
$var reg 1 i reg_writeD_reg $end
$var reg 2 j result_srcD_reg [1:0] $end
$var reg 32 k rs1_dataD_reg [31:0] $end
$var reg 32 l rs2_dataD_reg [31:0] $end
$scope module cp $end
$var wire 3 m funct3 [2:0] $end
$var wire 1 n funct7_5 $end
$var wire 1 o op_5 $end
$var wire 7 p opcode [6:0] $end
$var wire 2 q result_src [1:0] $end
$var wire 1 U reg_write $end
$var wire 1 Y mem_write $end
$var wire 2 r imm_src [1:0] $end
$var wire 1 ] branch $end
$var wire 1 ^ alu_src $end
$var wire 2 s alu_op [1:0] $end
$var reg 4 t alu_control [3:0] $end
$var reg 10 u controls [9:0] $end
$upscope $end
$scope module imm $end
$var wire 2 v imm_src [1:0] $end
$var wire 25 w instr [31:7] $end
$var parameter 32 x WIDTH $end
$var reg 32 y imm_extend [31:0] $end
$upscope $end
$scope module rf $end
$var wire 1 " clk $end
$var wire 1 # reset $end
$var wire 5 z rs1_addr [4:0] $end
$var wire 32 { rs1_data [31:0] $end
$var wire 5 | rs2_addr [4:0] $end
$var wire 32 } rs2_data [31:0] $end
$var wire 32 ~ wr_data [31:0] $end
$var wire 1 , reg_write $end
$var wire 5 !" rd_addr [4:0] $end
$var parameter 32 "" WIDTH $end
$var parameter 32 #" n_regs $end
$var integer 32 $" i [31:0] $end
$upscope $end
$upscope $end
$scope module ec $end
$var wire 4 %" alu_controlE [3:0] $end
$var wire 32 &" alu_resultM [31:0] $end
$var wire 1 B alu_srcE $end
$var wire 1 A branchE $end
$var wire 1 " clk $end
$var wire 3 '" funct3E [2:0] $end
$var wire 3 (" funct3M [2:0] $end
$var wire 32 )" imm_extendE [31:0] $end
$var wire 1 < mem_writeE $end
$var wire 1 ; mem_writeM $end
$var wire 32 *" pcE [31:0] $end
$var wire 32 +" pc_plus4E [31:0] $end
$var wire 32 ," pc_plus4M [31:0] $end
$var wire 5 -" rd_addrE [4:0] $end
$var wire 5 ." rd_addrM [4:0] $end
$var wire 1 . reg_writeE $end
$var wire 1 - reg_writeM $end
$var wire 1 # reset $end
$var wire 2 /" result_srcE [1:0] $end
$var wire 2 0" result_srcM [1:0] $end
$var wire 32 1" rs1_dataE [31:0] $end
$var wire 32 2" rs2_dataE [31:0] $end
$var wire 32 3" srcAE [31:0] $end
$var wire 32 4" write_dataE [31:0] $end
$var wire 32 5" write_dataM [31:0] $end
$var wire 1 6" zeroE $end
$var wire 32 7" srcBE [31:0] $end
$var wire 1 8" sltuE $end
$var wire 32 9" pc_targetE [31:0] $end
$var wire 1 :" msbE $end
$var wire 32 ;" alu_resultE [31:0] $end
$var parameter 32 <" WIDTH $end
$var reg 32 =" alu_resultE_reg [31:0] $end
$var reg 3 >" funct3E_reg [2:0] $end
$var reg 1 ?" mem_writeE_reg $end
$var reg 32 @" pc_plus4E_reg [31:0] $end
$var reg 1 4 pc_srcE $end
$var reg 5 A" rd_addrE_reg [4:0] $end
$var reg 1 B" reg_writeE_reg $end
$var reg 2 C" result_srcE_reg [1:0] $end
$var reg 32 D" write_dataE_reg [31:0] $end
$scope module alu_src_mux $end
$var wire 32 E" a [31:0] $end
$var wire 32 F" b [31:0] $end
$var wire 1 B sel $end
$var wire 32 G" out [31:0] $end
$var parameter 32 H" WIDTH $end
$upscope $end
$scope module main_alu $end
$var wire 32 I" a [31:0] $end
$var wire 4 J" alu_control [3:0] $end
$var wire 32 K" b [31:0] $end
$var wire 1 6" zero $end
$var wire 1 8" sltu $end
$var wire 1 :" msb $end
$var parameter 32 L" WIDTH $end
$var reg 32 M" alu_result [31:0] $end
$upscope $end
$scope module pct_adder $end
$var wire 32 N" a [31:0] $end
$var wire 32 O" b [31:0] $end
$var wire 32 P" sum [31:0] $end
$var parameter 32 Q" WIDTH $end
$upscope $end
$upscope $end
$scope module fc $end
$var wire 1 " clk $end
$var wire 32 R" pcD [31:0] $end
$var wire 32 S" pc_plus4D [31:0] $end
$var wire 1 4 pc_srcE $end
$var wire 32 T" pc_targetE [31:0] $end
$var wire 1 # reset $end
$var wire 32 U" pc_plus4F [31:0] $end
$var wire 32 V" pc_nextF [31:0] $end
$var wire 32 W" pcF [31:0] $end
$var wire 32 X" instrF [31:0] $end
$var wire 32 Y" instrD [31:0] $end
$var parameter 32 Z" WIDTH $end
$var reg 32 [" instrF_reg [31:0] $end
$var reg 32 \" pcF_reg [31:0] $end
$var reg 32 ]" pc_plus4F_reg [31:0] $end
$scope module imF $end
$var wire 32 ^" instr [31:0] $end
$var wire 32 _" instr_addr [31:0] $end
$var parameter 32 `" ADDR_WIDTH $end
$var parameter 32 a" DATA_WIDTH $end
$var parameter 32 b" MEM_SIZE $end
$upscope $end
$scope module pc_ffF $end
$var wire 1 " clk $end
$var wire 1 # reset $end
$var wire 32 c" d [31:0] $end
$var parameter 32 d" WIDTH $end
$var reg 32 e" q [31:0] $end
$upscope $end
$scope module pc_muxF $end
$var wire 32 f" b [31:0] $end
$var wire 1 4 sel $end
$var wire 32 g" out [31:0] $end
$var wire 32 h" a [31:0] $end
$var parameter 32 i" WIDTH $end
$upscope $end
$scope module pc_plus4adderF $end
$var wire 32 j" a [31:0] $end
$var wire 32 k" b [31:0] $end
$var wire 32 l" sum [31:0] $end
$var parameter 32 m" WIDTH $end
$upscope $end
$upscope $end
$scope module mc $end
$var wire 32 n" alu_resultM [31:0] $end
$var wire 32 o" alu_resultW [31:0] $end
$var wire 1 " clk $end
$var wire 3 p" funct3M [2:0] $end
$var wire 1 ; mem_writeM $end
$var wire 32 q" pc_plus4M [31:0] $end
$var wire 32 r" pc_plus4W [31:0] $end
$var wire 5 s" rd_addrM [4:0] $end
$var wire 5 t" rd_addrW [4:0] $end
$var wire 32 u" read_dataW [31:0] $end
$var wire 1 - reg_writeM $end
$var wire 1 , reg_writeW $end
$var wire 1 # reset $end
$var wire 2 v" result_srcM [1:0] $end
$var wire 2 w" result_srcW [1:0] $end
$var wire 32 x" write_dataM [31:0] $end
$var wire 32 y" read_dataM [31:0] $end
$var parameter 32 z" WIDTH $end
$var reg 32 {" alu_resultM_reg [31:0] $end
$var reg 32 |" pc_plus4M_reg [31:0] $end
$var reg 5 }" rd_addrM_reg [4:0] $end
$var reg 32 ~" read_dataM_reg [31:0] $end
$var reg 1 !# reg_writeM_reg $end
$var reg 2 "# result_srcM_reg [1:0] $end
$scope module dm $end
$var wire 1 " clk $end
$var wire 3 ## funct3 [2:0] $end
$var wire 1 ; mem_write $end
$var wire 1 # reset $end
$var wire 32 $# wr_addr [31:0] $end
$var wire 32 %# wr_data [31:0] $end
$var wire 32 &# word_addr [31:0] $end
$var parameter 32 '# MEM_SIZE $end
$var parameter 32 (# WIDTH $end
$var parameter 32 )# word_addr_bits $end
$var reg 32 *# read_data [31:0] $end
$var integer 32 +# i [31:0] $end
$upscope $end
$upscope $end
$scope module wc $end
$var wire 32 ,# alu_resultW [31:0] $end
$var wire 32 -# pc_plus4W [31:0] $end
$var wire 32 .# read_dataW [31:0] $end
$var wire 2 /# result_srcW [1:0] $end
$var wire 32 0# resultW [31:0] $end
$var parameter 32 1# WIDTH $end
$scope module result_mux $end
$var wire 32 2# a [31:0] $end
$var wire 32 3# b [31:0] $end
$var wire 32 4# c [31:0] $end
$var wire 2 5# sel [1:0] $end
$var wire 32 6# out [31:0] $end
$var parameter 32 7# WIDTH $end
$upscope $end
$upscope $end
$upscope $end
$upscope $end
$enddefinitions $end
$comment Show the parameter values. $end
$dumpall
b100000 7#
b100000 1#
b10 )#
b100000 (#
b100000 '#
b100000 z"
b100000 m"
b100000 i"
b100000 d"
b1000000000 b"
b100000 a"
b100000 `"
b100000 Z"
b100000 Q"
b100000 L"
b100000 H"
b100000 <"
b100000 #"
b100000 ""
b100000 x
b100000 `
b100000 F
$end
#0
$dumpvars
b0 6#
b0 5#
b0 4#
b0 3#
b0 2#
b0 0#
b0 /#
b0 .#
b0 -#
b0 ,#
b100000 +#
b0 *#
b0 &#
b0 %#
b0 $#
b0 ##
b0 "#
0!#
b0 ~"
b0 }"
b0 |"
b0 {"
b0 y"
b0 x"
b0 w"
b0 v"
b0 u"
b0 t"
b0 s"
b0 r"
b0 q"
b0 p"
b0 o"
b0 n"
b100 l"
b100 k"
b0 j"
b100 h"
b100 g"
b0 f"
b0 e"
b100 c"
b0 _"
b101000000000000010010011 ^"
b0 ]"
b0 \"
b0 ["
b0 Y"
b101000000000000010010011 X"
b0 W"
b100 V"
b100 U"
b0 T"
b0 S"
b0 R"
b0 P"
b0 O"
b0 N"
b0 M"
b0 K"
b0 J"
b0 I"
b0 G"
b0 F"
b0 E"
b0 D"
b0 C"
0B"
b0 A"
b0 @"
0?"
b0 >"
b0 ="
b0 ;"
0:"
b0 9"
08"
b0 7"
16"
b0 5"
bz 4"
b0 3"
b0 2"
b0 1"
b0 0"
b0 /"
b0 ."
b0 -"
b0 ,"
b0 +"
b0 *"
b0 )"
b0 ("
b0 '"
b0 &"
b0 %"
b100000 $"
b0 !"
b0 ~
b0 }
b0 |
b0 {
b0 z
bx y
b0 w
bx v
bx u
bx t
bx s
bx r
bx q
b0 p
0o
0n
b0 m
b0 l
b0 k
b0 j
0i
b0 h
b0 g
b0 f
0e
b0 d
b0 c
0b
b0 a
bx _
x^
x]
bx \
bx [
b0 Z
xY
b0 X
b0 W
b0 V
xU
b0 T
bx S
b0 R
b0 Q
b0 P
b0 O
b0 N
b0 M
zL
b0 K
b0 J
b0 I
b0 H
b0 G
b0 E
b0 D
b0 C
0B
0A
b0 @
b0 ?
b0 >
b0 =
0<
0;
b0 :
b0 9
b0 8
b0 7
b0 6
b0 5
04
b0 3
b0 2
b0 1
b0 0
b0 /
0.
0-
0,
b0 +
b0 *
b0 )
b0 (
b0 '
b0 &
b0 %
b0 $
0#
0"
b0 !
$end
#5000
b100000 +#
b100000 $"
1"
#10000
0"
#15000
b100000 $"
b100000 +#
1"
#20000
0"
1#
#25000
b1010 \
b1010 y
b0 _
b0 t
x6"
0]
b0 S
b0 q
1Y
1^
b0 [
b0 r
b0 v
1U
b10 s
x:"
b1100110 u
x8"
bx 7"
bx G"
bx K"
bx ;"
bx M"
b10100000000000001 w
b1010 |
b10011 p
b1000 V"
b1000 c"
b1000 g"
b10100000000000100010011 X"
b10100000000000100010011 ^"
bz %
bz 5"
bz x"
bz %#
bz D"
bx 3
bx 9"
bx P"
bx T"
bx f"
bx >
bx I
bx d
bx )"
bx F"
bx O"
b0z 2
b0z M
b0z -"
b0z h
xB
bx E
bx G
bx %"
bx J"
bx a
xA
xb
x<
xe
bx *
bx N
bx /"
bx j
x.
xi
b100 8
b100 W
b100 S"
b100 ]"
b101000000000000010010011 =
b101000000000000010010011 Z
b101000000000000010010011 Y"
b101000000000000010010011 ["
b1000 U"
b1000 h"
b1000 l"
b100 W"
b100 _"
b100 e"
b100 j"
1"
#30000
0"
#35000
06"
0:"
b101 \
b101 y
b1010 ;"
b1010 M"
b1100 V"
b1100 c"
b1100 g"
b100010000000110110011 X"
b100010000000110110011 ^"
b1010000000000010 w
b101 |
18"
b1010 7"
b1010 G"
b1010 K"
bx &#
b1100 U"
b1100 h"
b1100 l"
b1000 W"
b1000 _"
b1000 e"
b1000 j"
b1000 8
b1000 W
b1000 S"
b1000 ]"
b100 :
b100 X
b100 R"
b100 \"
b10100000000000100010011 =
b10100000000000100010011 Z
b10100000000000100010011 Y"
b10100000000000100010011 ["
b100 7
b100 K
b100 +"
b100 g
b1010 3
b1010 9"
b1010 P"
b1010 T"
b1010 f"
b1010 >
b1010 I
b1010 d
b1010 )"
b1010 F"
b1010 O"
1B
b0 E
b0 G
b0 %"
b0 J"
b0 a
0A
0b
1<
1e
b0 *
b0 N
b0 /"
b0 j
1.
1i
b0z 1
b0z ."
b0z s"
b0z A"
bx D
bx &"
bx ="
bx n"
bx $#
x;
x?"
bx )
bx 0"
bx v"
bx C"
x-
xB"
1"
#40000
0"
#45000
0Y
0^
bx [
bx r
bx v
bx !
bx $
bx +
bx T
bx ~
bx 0#
bx 6#
b101 ;"
b101 M"
bx \
bx y
b0xx110 u
b10 &#
b101 7"
b101 G"
b101 K"
b10001000000011 w
b1 |
b10 z
1o
b110011 p
b10000 V"
b10000 c"
b10000 g"
b11011001000000011 X"
b11011001000000011 ^"
b0z 0
b0z V
b0z !"
b0z t"
b0z }"
bx C
bx o"
bx {"
bx ,#
bx 2#
bx (
bx w"
bx "#
bx /#
bx 5#
x,
x!#
b100 6
b100 ,"
b100 q"
b100 @"
b1010 D
b1010 &"
b1010 ="
b1010 n"
b1010 $#
1;
1?"
b0 )
b0 0"
b0 v"
b0 C"
1-
1B"
b1000 7
b1000 K
b1000 +"
b1000 g
b101 >
b101 I
b101 d
b101 )"
b101 F"
b101 O"
b1001 3
b1001 9"
b1001 P"
b1001 T"
b1001 f"
b100 9
b100 J
b100 f
b100 *"
b100 N"
b1100 8
b1100 W
b1100 S"
b1100 ]"
b1000 :
b1000 X
b1000 R"
b1000 \"
b100010000000110110011 =
b100010000000110110011 Z
b100010000000110110011 Y"
b100010000000110110011 ["
b10000 U"
b10000 h"
b10000 l"
b1100 W"
b1100 _"
b1100 e"
b1100 j"
1"
#50000
0"
#55000
b0 \
b0 y
16"
b1 S
b1 q
1^
b0 [
b0 r
b0 v
b0 s
b0 _
b0 t
b10100100 u
b0 ;"
b0 M"
b10100 V"
b10100 c"
b10100 g"
b1100100000001010110011 X"
b1100100000001010110011 ^"
b1101100100 w
b0 |
b11 z
0o
b11 m
b11 p
08"
b0 7"
b0 G"
b0 K"
b1 &#
b1010 !
b1010 $
b1010 +
b1010 T
b1010 ~
b1010 0#
b1010 6#
b10100 U"
b10100 h"
b10100 l"
b10000 W"
b10000 _"
b10000 e"
b10000 j"
b10000 8
b10000 W
b10000 S"
b10000 ]"
b1100 :
b1100 X
b1100 R"
b1100 \"
b11011001000000011 =
b11011001000000011 Z
b11011001000000011 Y"
b11011001000000011 ["
b1100 7
b1100 K
b1100 +"
b1100 g
bx >
bx I
bx d
bx )"
bx F"
bx O"
bx 3
bx 9"
bx P"
bx T"
bx f"
b1000 9
b1000 J
b1000 f
b1000 *"
b1000 N"
0B
0<
0e
b1000 6
b1000 ,"
b1000 q"
b1000 @"
b101 D
b101 &"
b101 ="
b101 n"
b101 $#
b100 5
b100 r"
b100 |"
b100 -#
b100 4#
b1010 C
b1010 o"
b1010 {"
b1010 ,#
b1010 2#
b0 (
b0 w"
b0 "#
b0 /#
b0 5#
1,
1!#
b0 y"
b0 *#
1"
#60000
0"
#65000
b0 S
b0 q
0^
bx [
bx r
bx v
b10 s
b101 !
b101 $
b101 +
b101 T
b101 ~
b101 0#
b101 6#
bx \
bx y
b0xx110 u
b0 &#
b110010000000101 w
b11 |
b100 z
1o
b0 m
b110011 p
b11000 V"
b11000 c"
b11000 g"
bx X"
bx ^"
b1000 5
b1000 r"
b1000 |"
b1000 -#
b1000 4#
b101 C
b101 o"
b101 {"
b101 ,#
b101 2#
b1100 6
b1100 ,"
b1100 q"
b1100 @"
b0 D
b0 &"
b0 ="
b0 n"
b0 $#
0;
0?"
b11 @
b11 H
b11 '"
b11 c
b10000 7
b10000 K
b10000 +"
b10000 g
b1100 3
b1100 9"
b1100 P"
b1100 T"
b1100 f"
b0 >
b0 I
b0 d
b0 )"
b0 F"
b0 O"
b1100 9
b1100 J
b1100 f
b1100 *"
b1100 N"
1B
b1 *
b1 N
b1 /"
b1 j
b10100 8
b10100 W
b10100 S"
b10100 ]"
b10000 :
b10000 X
b10000 R"
b10000 \"
b1100100000001010110011 =
b1100100000001010110011 Z
b1100100000001010110011 Y"
b1100100000001010110011 ["
b11000 U"
b11000 h"
b11000 l"
b10100 W"
b10100 _"
b10100 e"
b10100 j"
b0 y"
b0 *#
1"
#70000
0"
#75000
x]
bx S
bx q
xY
x^
xU
bx s
bx u
b0 !
b0 $
b0 +
b0 T
b0 ~
b0 0#
b0 6#
b11100 V"
b11100 c"
b11100 g"
bx w
bx Q
bx }
bx |
bx R
bx {
bx z
xo
xn
bx m
bx p
b11100 U"
b11100 h"
b11100 l"
b11000 W"
b11000 _"
b11000 e"
b11000 j"
b11000 8
b11000 W
b11000 S"
b11000 ]"
b10100 :
b10100 X
b10100 R"
b10100 \"
bx =
bx Z
bx Y"
bx ["
b0 @
b0 H
b0 '"
b0 c
b10100 7
b10100 K
b10100 +"
b10100 g
bx >
bx I
bx d
bx )"
bx F"
bx O"
bx 3
bx 9"
bx P"
bx T"
bx f"
b10000 9
b10000 J
b10000 f
b10000 *"
b10000 N"
0B
b0 *
b0 N
b0 /"
b0 j
b11 ?
b11 ("
b11 p"
b11 ##
b11 >"
b10000 6
b10000 ,"
b10000 q"
b10000 @"
b1 )
b1 0"
b1 v"
b1 C"
b1100 5
b1100 r"
b1100 |"
b1100 -#
b1100 4#
b0 C
b0 o"
b0 {"
b0 ,#
b0 2#
1"
#80000
0"
#85000
x6"
x:"
bx ;"
bx M"
bx 7"
bx G"
bx K"
b100000 V"
b100000 c"
b100000 g"
b10000 5
b10000 r"
b10000 |"
b10000 -#
b10000 4#
b1 (
b1 w"
b1 "#
b1 /#
b1 5#
b0 ?
b0 ("
b0 p"
b0 ##
b0 >"
b10100 6
b10100 ,"
b10100 q"
b10100 @"
b0 )
b0 0"
b0 v"
b0 C"
bx @
bx H
bx '"
bx c
b11000 7
b11000 K
b11000 +"
b11000 g
b10100 9
b10100 J
b10100 f
b10100 *"
b10100 N"
bx &
bx P
bx l
bx 2"
bx E"
x8"
bx 3"
bx I"
bx '
bx O
bx k
bx 1"
xB
xA
xb
x<
xe
bx *
bx N
bx /"
bx j
x.
xi
b11100 8
b11100 W
b11100 S"
b11100 ]"
b11000 :
b11000 X
b11000 R"
b11000 \"
b100000 U"
b100000 h"
b100000 l"
b11100 W"
b11100 _"
b11100 e"
b11100 j"
1"
#90000
0"
#95000
b100100 V"
b100100 c"
b100100 g"
bx &#
b100100 U"
b100100 h"
b100100 l"
b100000 W"
b100000 _"
b100000 e"
b100000 j"
b100000 8
b100000 W
b100000 S"
b100000 ]"
b11100 :
b11100 X
b11100 R"
b11100 \"
b11100 7
b11100 K
b11100 +"
b11100 g
b11000 9
b11000 J
b11000 f
b11000 *"
b11000 N"
bx ?
bx ("
bx p"
bx ##
bx >"
b11000 6
b11000 ,"
b11000 q"
b11000 @"
bx D
bx &"
bx ="
bx n"
bx $#
x;
x?"
bx )
bx 0"
bx v"
bx C"
x-
xB"
b10100 5
b10100 r"
b10100 |"
b10100 -#
b10100 4#
b0 (
b0 w"
b0 "#
b0 /#
b0 5#
1"
#100000
0"
#105000
bx !
bx $
bx +
bx T
bx ~
bx 0#
bx 6#
b101000 V"
b101000 c"
b101000 g"
b11000 5
b11000 r"
b11000 |"
b11000 -#
b11000 4#
bx C
bx o"
bx {"
bx ,#
bx 2#
bx (
bx w"
bx "#
bx /#
bx 5#
x,
x!#
b11100 6
b11100 ,"
b11100 q"
b11100 @"
b100000 7
b100000 K
b100000 +"
b100000 g
b11100 9
b11100 J
b11100 f
b11100 *"
b11100 N"
b100100 8
b100100 W
b100100 S"
b100100 ]"
b100000 :
b100000 X
b100000 R"
b100000 \"
b101000 U"
b101000 h"
b101000 l"
b100100 W"
b100100 _"
b100100 e"
b100100 j"
1"
#110000
0"
#115000
b101100 V"
b101100 c"
b101100 g"
b101100 U"
b101100 h"
b101100 l"
b101000 W"
b101000 _"
b101000 e"
b101000 j"
b101000 8
b101000 W
b101000 S"
b101000 ]"
b100100 :
b100100 X
b100100 R"
b100100 \"
b100100 7
b100100 K
b100100 +"
b100100 g
b100000 9
b100000 J
b100000 f
b100000 *"
b100000 N"
b100000 6
b100000 ,"
b100000 q"
b100000 @"
b11100 5
b11100 r"
b11100 |"
b11100 -#
b11100 4#
1"
#120000
0"
#125000
b110000 V"
b110000 c"
b110000 g"
b100000 5
b100000 r"
b100000 |"
b100000 -#
b100000 4#
b100100 6
b100100 ,"
b100100 q"
b100100 @"
b101000 7
b101000 K
b101000 +"
b101000 g
b100100 9
b100100 J
b100100 f
b100100 *"
b100100 N"
b101100 8
b101100 W
b101100 S"
b101100 ]"
b101000 :
b101000 X
b101000 R"
b101000 \"
b110000 U"
b110000 h"
b110000 l"
b101100 W"
b101100 _"
b101100 e"
b101100 j"
1"
#130000
0"
#135000
b110100 V"
b110100 c"
b110100 g"
b110100 U"
b110100 h"
b110100 l"
b110000 W"
b110000 _"
b110000 e"
b110000 j"
b110000 8
b110000 W
b110000 S"
b110000 ]"
b101100 :
b101100 X
b101100 R"
b101100 \"
b101100 7
b101100 K
b101100 +"
b101100 g
b101000 9
b101000 J
b101000 f
b101000 *"
b101000 N"
b101000 6
b101000 ,"
b101000 q"
b101000 @"
b100100 5
b100100 r"
b100100 |"
b100100 -#
b100100 4#
1"
#140000
0"
#145000
b111000 V"
b111000 c"
b111000 g"
b101000 5
b101000 r"
b101000 |"
b101000 -#
b101000 4#
b101100 6
b101100 ,"
b101100 q"
b101100 @"
b110000 7
b110000 K
b110000 +"
b110000 g
b101100 9
b101100 J
b101100 f
b101100 *"
b101100 N"
b110100 8
b110100 W
b110100 S"
b110100 ]"
b110000 :
b110000 X
b110000 R"
b110000 \"
b111000 U"
b111000 h"
b111000 l"
b110100 W"
b110100 _"
b110100 e"
b110100 j"
1"
#150000
0"
#155000
b111100 V"
b111100 c"
b111100 g"
b111100 U"
b111100 h"
b111100 l"
b111000 W"
b111000 _"
b111000 e"
b111000 j"
b111000 8
b111000 W
b111000 S"
b111000 ]"
b110100 :
b110100 X
b110100 R"
b110100 \"
b110100 7
b110100 K
b110100 +"
b110100 g
b110000 9
b110000 J
b110000 f
b110000 *"
b110000 N"
b110000 6
b110000 ,"
b110000 q"
b110000 @"
b101100 5
b101100 r"
b101100 |"
b101100 -#
b101100 4#
1"
#160000
0"
#165000
b1000000 V"
b1000000 c"
b1000000 g"
b110000 5
b110000 r"
b110000 |"
b110000 -#
b110000 4#
b110100 6
b110100 ,"
b110100 q"
b110100 @"
b111000 7
b111000 K
b111000 +"
b111000 g
b110100 9
b110100 J
b110100 f
b110100 *"
b110100 N"
b111100 8
b111100 W
b111100 S"
b111100 ]"
b111000 :
b111000 X
b111000 R"
b111000 \"
b1000000 U"
b1000000 h"
b1000000 l"
b111100 W"
b111100 _"
b111100 e"
b111100 j"
1"
#170000
0"
#175000
b1000100 V"
b1000100 c"
b1000100 g"
b1000100 U"
b1000100 h"
b1000100 l"
b1000000 W"
b1000000 _"
b1000000 e"
b1000000 j"
b1000000 8
b1000000 W
b1000000 S"
b1000000 ]"
b111100 :
b111100 X
b111100 R"
b111100 \"
b111100 7
b111100 K
b111100 +"
b111100 g
b111000 9
b111000 J
b111000 f
b111000 *"
b111000 N"
b111000 6
b111000 ,"
b111000 q"
b111000 @"
b110100 5
b110100 r"
b110100 |"
b110100 -#
b110100 4#
1"
#180000
0"
#185000
b1001000 V"
b1001000 c"
b1001000 g"
b111000 5
b111000 r"
b111000 |"
b111000 -#
b111000 4#
b111100 6
b111100 ,"
b111100 q"
b111100 @"
b1000000 7
b1000000 K
b1000000 +"
b1000000 g
b111100 9
b111100 J
b111100 f
b111100 *"
b111100 N"
b1000100 8
b1000100 W
b1000100 S"
b1000100 ]"
b1000000 :
b1000000 X
b1000000 R"
b1000000 \"
b1001000 U"
b1001000 h"
b1001000 l"
b1000100 W"
b1000100 _"
b1000100 e"
b1000100 j"
1"
#190000
0"
#195000
b1001100 V"
b1001100 c"
b1001100 g"
b1001100 U"
b1001100 h"
b1001100 l"
b1001000 W"
b1001000 _"
b1001000 e"
b1001000 j"
b1001000 8
b1001000 W
b1001000 S"
b1001000 ]"
b1000100 :
b1000100 X
b1000100 R"
b1000100 \"
b1000100 7
b1000100 K
b1000100 +"
b1000100 g
b1000000 9
b1000000 J
b1000000 f
b1000000 *"
b1000000 N"
b1000000 6
b1000000 ,"
b1000000 q"
b1000000 @"
b111100 5
b111100 r"
b111100 |"
b111100 -#
b111100 4#
1"
#200000
0"
#205000
b1010000 V"
b1010000 c"
b1010000 g"
b1000000 5
b1000000 r"
b1000000 |"
b1000000 -#
b1000000 4#
b1000100 6
b1000100 ,"
b1000100 q"
b1000100 @"
b1001000 7
b1001000 K
b1001000 +"
b1001000 g
b1000100 9
b1000100 J
b1000100 f
b1000100 *"
b1000100 N"
b1001100 8
b1001100 W
b1001100 S"
b1001100 ]"
b1001000 :
b1001000 X
b1001000 R"
b1001000 \"
b1010000 U"
b1010000 h"
b1010000 l"
b1001100 W"
b1001100 _"
b1001100 e"
b1001100 j"
1"
#210000
0"
#215000
b1010100 V"
b1010100 c"
b1010100 g"
b1010100 U"
b1010100 h"
b1010100 l"
b1010000 W"
b1010000 _"
b1010000 e"
b1010000 j"
b1010000 8
b1010000 W
b1010000 S"
b1010000 ]"
b1001100 :
b1001100 X
b1001100 R"
b1001100 \"
b1001100 7
b1001100 K
b1001100 +"
b1001100 g
b1001000 9
b1001000 J
b1001000 f
b1001000 *"
b1001000 N"
b1001000 6
b1001000 ,"
b1001000 q"
b1001000 @"
b1000100 5
b1000100 r"
b1000100 |"
b1000100 -#
b1000100 4#
1"
#220000
0"
#225000
b1011000 V"
b1011000 c"
b1011000 g"
b1001000 5
b1001000 r"
b1001000 |"
b1001000 -#
b1001000 4#
b1001100 6
b1001100 ,"
b1001100 q"
b1001100 @"
b1010000 7
b1010000 K
b1010000 +"
b1010000 g
b1001100 9
b1001100 J
b1001100 f
b1001100 *"
b1001100 N"
b1010100 8
b1010100 W
b1010100 S"
b1010100 ]"
b1010000 :
b1010000 X
b1010000 R"
b1010000 \"
b1011000 U"
b1011000 h"
b1011000 l"
b1010100 W"
b1010100 _"
b1010100 e"
b1010100 j"
1"
#230000
0"
